Oct-27 14:55:16.881 [main] DEBUG nextflow.cli.Launcher - $> nextflow run ../03_rerun_assembly.nf --prefix_data /home/luisas/Desktop/cluster/data/ -w /home/luisas/Desktop/cluster/data/work/ -c ../configs/nextflow.filtering.local.config
Oct-27 14:55:17.015 [main] INFO  nextflow.cli.CmdRun - N E X T F L O W  ~  version 19.07.0
Oct-27 14:55:17.025 [main] INFO  nextflow.cli.CmdRun - Launching `../03_rerun_assembly.nf` [clever_solvay] - revision: c0a4f8a748
Oct-27 14:55:17.037 [main] DEBUG nextflow.config.ConfigBuilder - User config file: /home/luisas/Desktop/cluster/proj/code/ebola/BroadAnnotation/02_local/../configs/nextflow.filtering.local.config
Oct-27 14:55:17.048 [main] DEBUG nextflow.config.ConfigBuilder - Parsing config file: /home/luisas/Desktop/cluster/proj/code/ebola/BroadAnnotation/configs/nextflow.filtering.local.config
Oct-27 14:55:17.083 [main] DEBUG nextflow.config.ConfigBuilder - Applying config profile: `standard`
Oct-27 14:55:17.379 [main] DEBUG nextflow.Session - Session uuid: c0dd78a2-a63c-4b80-9b6e-2f56b7cecdf7
Oct-27 14:55:17.379 [main] DEBUG nextflow.Session - Run name: clever_solvay
Oct-27 14:55:17.380 [main] DEBUG nextflow.Session - Executor pool size: 4
Oct-27 14:55:17.387 [main] DEBUG nextflow.cli.CmdRun - 
  Version: 19.07.0 build 5106
  Created: 27-07-2019 13:22 UTC (15:22 CEST)
  System: Linux 5.4.0-51-generic
  Runtime: Groovy 2.5.6 on OpenJDK 64-Bit Server VM 1.8.0_265-8u265-b01-0ubuntu2~18.04-b01
  Encoding: UTF-8 (UTF-8)
  Process: 21736@luisas-Precision-3630-Tower [127.0.1.1]
  CPUs: 4 - Mem: 31.2 GB (4 GB) - Swap: 1.8 GB (1.7 GB)
Oct-27 14:55:17.420 [main] DEBUG nextflow.Session - Work-dir: /home/luisas/Desktop/cluster/data/work [fuseblk]
Oct-27 14:55:17.421 [main] DEBUG nextflow.Session - Script base path does not exist or is not a directory: /home/luisas/Desktop/cluster/proj/code/ebola/BroadAnnotation/bin
Oct-27 14:55:17.636 [main] DEBUG nextflow.Session - Session start invoked
Oct-27 14:55:17.960 [main] DEBUG nextflow.script.ScriptRunner - > Launching execution
Oct-27 14:55:17.967 [main] INFO  nextflow.Nextflow - ==============================================
Oct-27 14:55:17.968 [main] INFO  nextflow.Nextflow -  Quantification and Filtering  
Oct-27 14:55:17.968 [main] INFO  nextflow.Nextflow - ==============================================
Oct-27 14:55:17.988 [PathVisitor-1] DEBUG nextflow.file.PathVisitor - files for syntax: glob; folder: /home/luisas/Desktop/cluster/data/00_RawData/BroadTranscriptomesComplete/bams/; pattern: *.bam; options: [:]
Oct-27 14:55:18.086 [main] WARN  nextflow.script.ScriptBinding - Access to undefined parameter `mrnas_predicted` -- Initialise it to a default value eg. `params.mrnas_predicted = some_value`
Oct-27 14:55:18.103 [PathVisitor-1] DEBUG nextflow.file.PathVisitor - files for syntax: glob; folder: /home/luisas/Desktop/cluster/data/01_bulk_RNA-Seq_lncRNAs_annotation/01_PreliminaryFiles_rheMac10/; pattern: cpat*; options: [:]
Oct-27 14:55:18.175 [main] DEBUG nextflow.script.ProcessConfig - Config settings `withName:expression_stringtie|DeNovoAssembly|StringTie_Merge_Reference_Guided` matches process DeNovoAssembly
Oct-27 14:55:18.183 [main] DEBUG nextflow.executor.ExecutorFactory - << taskConfig executor: null
Oct-27 14:55:18.183 [main] DEBUG nextflow.executor.ExecutorFactory - >> processorType: 'local'
Oct-27 14:55:18.211 [main] DEBUG nextflow.executor.Executor - [warm up] executor > local
Oct-27 14:55:18.214 [main] DEBUG n.processor.LocalPollingMonitor - Creating local task monitor for executor 'local' > cpus=4; memory=31.2 GB; capacity=4; pollInterval=100ms; dumpInterval=5m
Oct-27 14:55:18.262 [main] DEBUG nextflow.processor.TaskProcessor - Creating operator > DeNovoAssembly -- maxForks: 4
Oct-27 14:55:18.293 [main] DEBUG nextflow.script.ProcessConfig - Config settings `withName:expression_stringtie|DeNovoAssembly|StringTie_Merge_Reference_Guided` matches process StringTie_Merge_Reference_Guided
Oct-27 14:55:18.294 [main] DEBUG nextflow.executor.ExecutorFactory - << taskConfig executor: null
Oct-27 14:55:18.294 [main] DEBUG nextflow.executor.ExecutorFactory - >> processorType: 'local'
Oct-27 14:55:18.295 [main] DEBUG nextflow.processor.TaskProcessor - Creating operator > StringTie_Merge_Reference_Guided -- maxForks: 4
Oct-27 14:55:18.297 [main] DEBUG nextflow.executor.ExecutorFactory - << taskConfig executor: null
Oct-27 14:55:18.298 [main] DEBUG nextflow.executor.ExecutorFactory - >> processorType: 'local'
Oct-27 14:55:18.299 [main] DEBUG nextflow.processor.TaskProcessor - Creating operator > gffCompare2 -- maxForks: 4
Oct-27 14:55:18.311 [main] DEBUG nextflow.executor.ExecutorFactory - << taskConfig executor: null
Oct-27 14:55:18.311 [main] DEBUG nextflow.executor.ExecutorFactory - >> processorType: 'local'
Oct-27 14:55:18.312 [main] DEBUG nextflow.processor.TaskProcessor - Creating operator > prefilter -- maxForks: 4
Oct-27 14:55:18.315 [main] DEBUG nextflow.executor.ExecutorFactory - << taskConfig executor: null
Oct-27 14:55:18.315 [main] DEBUG nextflow.executor.ExecutorFactory - >> processorType: 'local'
Oct-27 14:55:18.317 [main] DEBUG nextflow.processor.TaskProcessor - Creating operator > mergeWithAnnotation -- maxForks: 4
Oct-27 14:55:18.321 [main] DEBUG nextflow.script.ProcessConfig - Config settings `withName:expression_stringtie|DeNovoAssembly|StringTie_Merge_Reference_Guided` matches process expression_stringtie
Oct-27 14:55:18.322 [main] DEBUG nextflow.executor.ExecutorFactory - << taskConfig executor: null
Oct-27 14:55:18.322 [main] DEBUG nextflow.executor.ExecutorFactory - >> processorType: 'local'
Oct-27 14:55:18.323 [main] DEBUG nextflow.processor.TaskProcessor - Creating operator > expression_stringtie -- maxForks: 4
Oct-27 14:55:18.326 [main] DEBUG nextflow.executor.ExecutorFactory - << taskConfig executor: null
Oct-27 14:55:18.326 [main] DEBUG nextflow.executor.ExecutorFactory - >> processorType: 'local'
Oct-27 14:55:18.327 [main] DEBUG nextflow.processor.TaskProcessor - Creating operator > filterExpression -- maxForks: 4
Oct-27 14:55:18.339 [main] DEBUG nextflow.executor.ExecutorFactory - << taskConfig executor: null
Oct-27 14:55:18.341 [main] DEBUG nextflow.executor.ExecutorFactory - >> processorType: 'local'
Oct-27 14:55:18.342 [main] DEBUG nextflow.processor.TaskProcessor - Creating operator > gtf2bed -- maxForks: 4
Oct-27 14:55:18.345 [main] DEBUG nextflow.executor.ExecutorFactory - << taskConfig executor: null
Oct-27 14:55:18.345 [main] DEBUG nextflow.executor.ExecutorFactory - >> processorType: 'local'
Oct-27 14:55:18.346 [main] DEBUG nextflow.processor.TaskProcessor - Creating operator > getFasta -- maxForks: 4
Oct-27 14:55:18.355 [main] DEBUG nextflow.executor.ExecutorFactory - << taskConfig executor: null
Oct-27 14:55:18.355 [main] DEBUG nextflow.executor.ExecutorFactory - >> processorType: 'local'
Oct-27 14:55:18.359 [main] DEBUG nextflow.processor.TaskProcessor - Creating operator > CPC2 -- maxForks: 4
Oct-27 14:55:18.363 [main] DEBUG nextflow.executor.ExecutorFactory - << taskConfig executor: null
Oct-27 14:55:18.363 [main] DEBUG nextflow.executor.ExecutorFactory - >> processorType: 'local'
Oct-27 14:55:18.365 [main] DEBUG nextflow.processor.TaskProcessor - Creating operator > CPAT -- maxForks: 4
Oct-27 14:55:18.371 [main] DEBUG nextflow.executor.ExecutorFactory - << taskConfig executor: null
Oct-27 14:55:18.371 [main] DEBUG nextflow.executor.ExecutorFactory - >> processorType: 'local'
Oct-27 14:55:18.372 [main] DEBUG nextflow.processor.TaskProcessor - Creating operator > CNIT -- maxForks: 4
Oct-27 14:55:18.379 [main] DEBUG nextflow.executor.ExecutorFactory - << taskConfig executor: null
Oct-27 14:55:18.379 [main] DEBUG nextflow.executor.ExecutorFactory - >> processorType: 'local'
Oct-27 14:55:18.380 [main] DEBUG nextflow.processor.TaskProcessor - Creating operator > getFinalAnnotation -- maxForks: 4
Oct-27 14:55:18.385 [main] DEBUG nextflow.executor.ExecutorFactory - << taskConfig executor: null
Oct-27 14:55:18.385 [main] DEBUG nextflow.executor.ExecutorFactory - >> processorType: 'local'
Oct-27 14:55:18.387 [main] DEBUG nextflow.processor.TaskProcessor - Creating operator > stringtie -- maxForks: 4
Oct-27 14:55:18.389 [main] DEBUG nextflow.script.ScriptRunner - > Await termination 
Oct-27 14:55:18.390 [main] DEBUG nextflow.Session - Session await
Oct-27 14:55:18.430 [Task submitter] DEBUG nextflow.executor.LocalTaskHandler - Launch cmd line: /bin/bash -ue .command.run
Oct-27 14:55:18.436 [Task submitter] INFO  nextflow.Session - [92/c90eca] Submitted process > DeNovoAssembly (3)
Oct-27 14:55:18.495 [Task submitter] DEBUG nextflow.executor.LocalTaskHandler - Launch cmd line: /bin/bash -ue .command.run
Oct-27 14:55:18.496 [Task submitter] INFO  nextflow.Session - [01/2d35ef] Submitted process > DeNovoAssembly (2)
Oct-27 14:55:18.511 [Task submitter] DEBUG nextflow.executor.LocalTaskHandler - Launch cmd line: /bin/bash -ue .command.run
Oct-27 14:55:18.520 [Task submitter] INFO  nextflow.Session - [d0/8f65db] Submitted process > DeNovoAssembly (1)
Oct-27 14:55:18.528 [Task submitter] DEBUG nextflow.executor.LocalTaskHandler - Launch cmd line: /bin/bash -ue .command.run
Oct-27 14:55:18.528 [Task submitter] INFO  nextflow.Session - [b6/89559e] Submitted process > DeNovoAssembly (4)
Oct-27 14:55:19.035 [Task monitor] DEBUG n.processor.TaskPollingMonitor - Task completed > TaskHandler[id: 2; name: DeNovoAssembly (3); status: COMPLETED; exit: 125; error: -; workDir: /home/luisas/Desktop/cluster/data/work/92/c90eca8947c06c1515bcf298297d0b]
Oct-27 14:55:19.043 [Task submitter] DEBUG nextflow.executor.LocalTaskHandler - Launch cmd line: /bin/bash -ue .command.run
Oct-27 14:55:19.044 [Task submitter] INFO  nextflow.Session - [b3/0ab69f] Submitted process > DeNovoAssembly (5)
Oct-27 14:55:19.067 [Task monitor] ERROR nextflow.processor.TaskProcessor - Error executing process > 'DeNovoAssembly (3)'

Caused by:
  Process `DeNovoAssembly (3)` terminated with an error exit status (125)

Command executed:

  stringtie A0358_S67_L001_deduplicated.bam -G rheMac10_EBOV-Kikwit_UCSC.gtf -o A0358_S67_L001_deduplicated.stringtie.gtf --fr -p 1

Command exit status:
  125

Command output:
  (empty)

Command error:
  docker: Error response from daemon: error while creating mount source path '/home/luisas/Desktop/cluster/data': mkdir /home/luisas/Desktop/cluster/data: file exists.
  time="2020-10-27T14:55:18+01:00" level=error msg="error waiting for container: context canceled"

Work dir:
  /home/luisas/Desktop/cluster/data/work/92/c90eca8947c06c1515bcf298297d0b

Tip: you can replicate the issue by changing to the process work dir and entering the command `bash .command.run`
Oct-27 14:55:19.082 [Task monitor] DEBUG nextflow.Session - Session aborted -- Cause: Process `DeNovoAssembly (3)` terminated with an error exit status (125)
Oct-27 14:55:19.114 [Task monitor] DEBUG nextflow.Session - The following nodes are still active:
[process] StringTie_Merge_Reference_Guided
  status=ACTIVE
  port 0: (value) OPEN  ; channel: stringtie_gtfs
  port 1: (value) bound ; channel: reference_gtf
  port 2: (cntrl) -     ; channel: $

[process] gffCompare2
  status=ACTIVE
  port 0: (value) OPEN  ; channel: merged_gtf
  port 1: (value) bound ; channel: reference_gtf
  port 2: (cntrl) -     ; channel: $

[process] prefilter
  status=ACTIVE
  port 0: (value) bound ; channel: prefilter_script
  port 1: (value) OPEN  ; channel: assembly
  port 2: (value) OPEN  ; channel: lnc_novel_compared_to_ref
  port 3: (value) bound ; channel: ref
  port 4: (cntrl) -     ; channel: $

[process] mergeWithAnnotation
  status=ACTIVE
  port 0: (value) bound ; channel: gtf_ref
  port 1: (value) OPEN  ; channel: novel
  port 2: (cntrl) -     ; channel: $

[process] expression_stringtie
  status=ACTIVE
  port 0: (value) OPEN  ; channel: gtf
  port 1: (queue) OPEN  ; channel: -
  port 2: (cntrl) -     ; channel: $

[process] filterExpression
  status=ACTIVE
  port 0: (value) bound ; channel: expression_script
  port 1: (value) OPEN  ; channel: prefilter_candidates
  port 2: (value) OPEN  ; channel: expression
  port 3: (cntrl) -     ; channel: $

[process] gtf2bed
  status=ACTIVE
  port 0: (value) bound ; channel: gtf2bed
  port 1: (value) OPEN  ; channel: candidates
  port 2: (cntrl) -     ; channel: $

[process] getFasta
  status=ACTIVE
  port 0: (value) bound ; channel: gtf2bed
  port 1: (queue) OPEN  ; channel: reference_assembly
  port 2: (value) OPEN  ; channel: candidates
  port 3: (cntrl) -     ; channel: $

[process] CPC2
  status=ACTIVE
  port 0: (queue) OPEN  ; channel: candidates
  port 1: (cntrl) -     ; channel: $

[process] CPAT
  status=ACTIVE
  port 0: (queue) OPEN  ; channel: candidates
  port 1: (value) bound ; channel: cpatmodel
  port 2: (value) bound ; channel: cpathexamer
  port 3: (value) bound ; channel: cpat_files
  port 4: (cntrl) -     ; channel: $

[process] CNIT
  status=ACTIVE
  port 0: (queue) OPEN  ; channel: candidates
  port 1: (cntrl) -     ; channel: $

[process] getFinalAnnotation
  status=ACTIVE
  port 0: (queue) OPEN  ; channel: cpatpred
  port 1: (queue) OPEN  ; channel: cnitpred
  port 2: (queue) OPEN  ; channel: cpc2pred
  port 3: (value) bound ; channel: gtf_ref_2
  port 4: (value) bound ; channel: extractNovel_script
  port 5: (value) OPEN  ; channel: candidates
  port 6: (cntrl) -     ; channel: $

[process] stringtie
  status=ACTIVE
  port 0: (value) OPEN  ; channel: -
  port 1: (queue) OPEN  ; channel: -
  port 2: (cntrl) -     ; channel: $

Oct-27 14:55:19.119 [main] DEBUG nextflow.Session - Session await > all process finished
Oct-27 14:55:19.121 [main] DEBUG nextflow.Session - Session await > all barriers passed
Oct-27 14:55:19.125 [main] WARN  n.processor.TaskPollingMonitor - Killing pending tasks (4)
Oct-27 14:55:19.250 [main] DEBUG nextflow.trace.StatsObserver - Workflow completed > WorkflowStats[succeedCount=0; failedCount=5; ignoredCount=0; cachedCount=0; succeedDuration=0ms; failedDuration=503ms; cachedDuration=0ms]
Oct-27 14:55:19.292 [main] DEBUG nextflow.CacheDB - Closing CacheDB done
Oct-27 14:55:19.348 [main] DEBUG nextflow.script.ScriptRunner - > Execution complete -- Goodbye
