Oct-27 14:50:06.751 [main] DEBUG nextflow.cli.Launcher - $> nextflow run ../03_rerun_assembly.nf --prefix_data /home/luisas/Desktop/cluster/data/ -w /home/luisas/Desktop/cluster/data/work/ -c ../configs/nextflow.filtering.local.config
Oct-27 14:50:06.920 [main] INFO  nextflow.cli.CmdRun - N E X T F L O W  ~  version 19.07.0
Oct-27 14:50:06.933 [main] INFO  nextflow.cli.CmdRun - Launching `../03_rerun_assembly.nf` [determined_mcclintock] - revision: c0a4f8a748
Oct-27 14:50:06.948 [main] DEBUG nextflow.config.ConfigBuilder - User config file: /home/luisas/Desktop/cluster/proj/code/ebola/BroadAnnotation/02_local/../configs/nextflow.filtering.local.config
Oct-27 14:50:06.949 [main] DEBUG nextflow.config.ConfigBuilder - Parsing config file: /home/luisas/Desktop/cluster/proj/code/ebola/BroadAnnotation/configs/nextflow.filtering.local.config
Oct-27 14:50:06.995 [main] DEBUG nextflow.config.ConfigBuilder - Applying config profile: `standard`
Oct-27 14:50:07.300 [main] DEBUG nextflow.Session - Session uuid: 0d663a4a-2c78-4829-b3c6-73fd92fd9489
Oct-27 14:50:07.300 [main] DEBUG nextflow.Session - Run name: determined_mcclintock
Oct-27 14:50:07.301 [main] DEBUG nextflow.Session - Executor pool size: 4
Oct-27 14:50:07.307 [main] DEBUG nextflow.cli.CmdRun - 
  Version: 19.07.0 build 5106
  Created: 27-07-2019 13:22 UTC (15:22 CEST)
  System: Linux 5.4.0-51-generic
  Runtime: Groovy 2.5.6 on OpenJDK 64-Bit Server VM 1.8.0_265-8u265-b01-0ubuntu2~18.04-b01
  Encoding: UTF-8 (UTF-8)
  Process: 21143@luisas-Precision-3630-Tower [127.0.1.1]
  CPUs: 4 - Mem: 31.2 GB (4 GB) - Swap: 1.8 GB (1.7 GB)
Oct-27 14:50:07.340 [main] DEBUG nextflow.Session - Work-dir: /home/luisas/Desktop/cluster/data/work [fuseblk]
Oct-27 14:50:07.341 [main] DEBUG nextflow.Session - Script base path does not exist or is not a directory: /home/luisas/Desktop/cluster/proj/code/ebola/BroadAnnotation/bin
Oct-27 14:50:07.524 [main] DEBUG nextflow.Session - Session start invoked
Oct-27 14:50:07.840 [main] DEBUG nextflow.script.ScriptRunner - > Launching execution
Oct-27 14:50:07.848 [main] INFO  nextflow.Nextflow - ==============================================
Oct-27 14:50:07.848 [main] INFO  nextflow.Nextflow -  Quantification and Filtering  
Oct-27 14:50:07.848 [main] INFO  nextflow.Nextflow - ==============================================
Oct-27 14:50:07.868 [PathVisitor-1] DEBUG nextflow.file.PathVisitor - files for syntax: glob; folder: /home/luisas/Desktop/cluster/data/00_RawData/BroadTranscriptomesComplete/bams/; pattern: *.bam; options: [:]
Oct-27 14:50:07.997 [main] WARN  nextflow.script.ScriptBinding - Access to undefined parameter `mrnas_predicted` -- Initialise it to a default value eg. `params.mrnas_predicted = some_value`
Oct-27 14:50:08.003 [PathVisitor-1] DEBUG nextflow.file.PathVisitor - files for syntax: glob; folder: /home/luisas/Desktop/cluster/data/01_bulk_RNA-Seq_lncRNAs_annotation/01_PreliminaryFiles_rheMac10/; pattern: cpat*; options: [:]
Oct-27 14:50:08.060 [main] DEBUG nextflow.script.ProcessConfig - Config settings `withName:expression_stringtie|DeNovoAssembly|StringTie_Merge_Reference_Guided` matches process DeNovoAssembly
Oct-27 14:50:08.068 [main] DEBUG nextflow.executor.ExecutorFactory - << taskConfig executor: null
Oct-27 14:50:08.069 [main] DEBUG nextflow.executor.ExecutorFactory - >> processorType: 'local'
Oct-27 14:50:08.072 [main] DEBUG nextflow.executor.Executor - [warm up] executor > local
Oct-27 14:50:08.076 [main] DEBUG n.processor.LocalPollingMonitor - Creating local task monitor for executor 'local' > cpus=4; memory=31.2 GB; capacity=4; pollInterval=100ms; dumpInterval=5m
Oct-27 14:50:08.140 [main] DEBUG nextflow.processor.TaskProcessor - Creating operator > DeNovoAssembly -- maxForks: 4
Oct-27 14:50:08.155 [main] DEBUG nextflow.script.ProcessConfig - Config settings `withName:expression_stringtie|DeNovoAssembly|StringTie_Merge_Reference_Guided` matches process StringTie_Merge_Reference_Guided
Oct-27 14:50:08.156 [main] DEBUG nextflow.executor.ExecutorFactory - << taskConfig executor: null
Oct-27 14:50:08.156 [main] DEBUG nextflow.executor.ExecutorFactory - >> processorType: 'local'
Oct-27 14:50:08.165 [main] DEBUG nextflow.processor.TaskProcessor - Creating operator > StringTie_Merge_Reference_Guided -- maxForks: 4
Oct-27 14:50:08.183 [main] DEBUG nextflow.executor.ExecutorFactory - << taskConfig executor: null
Oct-27 14:50:08.184 [main] DEBUG nextflow.executor.ExecutorFactory - >> processorType: 'local'
Oct-27 14:50:08.186 [main] DEBUG nextflow.processor.TaskProcessor - Creating operator > gffCompare2 -- maxForks: 4
Oct-27 14:50:08.195 [main] DEBUG nextflow.executor.ExecutorFactory - << taskConfig executor: null
Oct-27 14:50:08.196 [main] DEBUG nextflow.executor.ExecutorFactory - >> processorType: 'local'
Oct-27 14:50:08.197 [main] DEBUG nextflow.processor.TaskProcessor - Creating operator > prefilter -- maxForks: 4
Oct-27 14:50:08.201 [main] DEBUG nextflow.executor.ExecutorFactory - << taskConfig executor: null
Oct-27 14:50:08.202 [main] DEBUG nextflow.executor.ExecutorFactory - >> processorType: 'local'
Oct-27 14:50:08.203 [main] DEBUG nextflow.processor.TaskProcessor - Creating operator > mergeWithAnnotation -- maxForks: 4
Oct-27 14:50:08.211 [main] DEBUG nextflow.script.ProcessConfig - Config settings `withName:expression_stringtie|DeNovoAssembly|StringTie_Merge_Reference_Guided` matches process expression_stringtie
Oct-27 14:50:08.211 [main] DEBUG nextflow.executor.ExecutorFactory - << taskConfig executor: null
Oct-27 14:50:08.212 [main] DEBUG nextflow.executor.ExecutorFactory - >> processorType: 'local'
Oct-27 14:50:08.213 [main] DEBUG nextflow.processor.TaskProcessor - Creating operator > expression_stringtie -- maxForks: 4
Oct-27 14:50:08.220 [main] DEBUG nextflow.executor.ExecutorFactory - << taskConfig executor: null
Oct-27 14:50:08.220 [main] DEBUG nextflow.executor.ExecutorFactory - >> processorType: 'local'
Oct-27 14:50:08.226 [main] DEBUG nextflow.processor.TaskProcessor - Creating operator > filterExpression -- maxForks: 4
Oct-27 14:50:08.242 [main] DEBUG nextflow.executor.ExecutorFactory - << taskConfig executor: null
Oct-27 14:50:08.243 [main] DEBUG nextflow.executor.ExecutorFactory - >> processorType: 'local'
Oct-27 14:50:08.244 [main] DEBUG nextflow.processor.TaskProcessor - Creating operator > gtf2bed -- maxForks: 4
Oct-27 14:50:08.252 [main] DEBUG nextflow.executor.ExecutorFactory - << taskConfig executor: null
Oct-27 14:50:08.252 [main] DEBUG nextflow.executor.ExecutorFactory - >> processorType: 'local'
Oct-27 14:50:08.253 [main] DEBUG nextflow.processor.TaskProcessor - Creating operator > getFasta -- maxForks: 4
Oct-27 14:50:08.260 [main] DEBUG nextflow.executor.ExecutorFactory - << taskConfig executor: null
Oct-27 14:50:08.260 [main] DEBUG nextflow.executor.ExecutorFactory - >> processorType: 'local'
Oct-27 14:50:08.261 [main] DEBUG nextflow.processor.TaskProcessor - Creating operator > CPC2 -- maxForks: 4
Oct-27 14:50:08.271 [main] DEBUG nextflow.executor.ExecutorFactory - << taskConfig executor: null
Oct-27 14:50:08.271 [main] DEBUG nextflow.executor.ExecutorFactory - >> processorType: 'local'
Oct-27 14:50:08.271 [main] DEBUG nextflow.processor.TaskProcessor - Creating operator > CPAT -- maxForks: 4
Oct-27 14:50:08.282 [main] DEBUG nextflow.executor.ExecutorFactory - << taskConfig executor: null
Oct-27 14:50:08.282 [main] DEBUG nextflow.executor.ExecutorFactory - >> processorType: 'local'
Oct-27 14:50:08.282 [main] DEBUG nextflow.processor.TaskProcessor - Creating operator > CNIT -- maxForks: 4
Oct-27 14:50:08.291 [main] DEBUG nextflow.executor.ExecutorFactory - << taskConfig executor: null
Oct-27 14:50:08.291 [main] DEBUG nextflow.executor.ExecutorFactory - >> processorType: 'local'
Oct-27 14:50:08.292 [main] DEBUG nextflow.processor.TaskProcessor - Creating operator > getFinalAnnotation -- maxForks: 4
Oct-27 14:50:08.297 [main] DEBUG nextflow.executor.ExecutorFactory - << taskConfig executor: null
Oct-27 14:50:08.297 [main] DEBUG nextflow.executor.ExecutorFactory - >> processorType: 'local'
Oct-27 14:50:08.299 [main] DEBUG nextflow.processor.TaskProcessor - Creating operator > stringtie -- maxForks: 4
Oct-27 14:50:08.303 [main] DEBUG nextflow.script.ScriptRunner - > Await termination 
Oct-27 14:50:08.306 [main] DEBUG nextflow.Session - Session await
Oct-27 14:50:08.335 [Task submitter] DEBUG nextflow.executor.LocalTaskHandler - Launch cmd line: /bin/bash -ue .command.run
Oct-27 14:50:08.343 [Task submitter] INFO  nextflow.Session - [07/d84a46] Submitted process > DeNovoAssembly (1)
Oct-27 14:50:08.413 [Task submitter] DEBUG nextflow.executor.LocalTaskHandler - Launch cmd line: /bin/bash -ue .command.run
Oct-27 14:50:08.425 [Task submitter] INFO  nextflow.Session - [52/20e06d] Submitted process > DeNovoAssembly (2)
Oct-27 14:50:08.435 [Task submitter] DEBUG nextflow.executor.LocalTaskHandler - Launch cmd line: /bin/bash -ue .command.run
Oct-27 14:50:08.445 [Task submitter] INFO  nextflow.Session - [a1/21089c] Submitted process > DeNovoAssembly (4)
Oct-27 14:50:08.463 [Task submitter] DEBUG nextflow.executor.LocalTaskHandler - Launch cmd line: /bin/bash -ue .command.run
Oct-27 14:50:08.464 [Task submitter] INFO  nextflow.Session - [04/acebf8] Submitted process > DeNovoAssembly (5)
Oct-27 14:50:08.934 [Task monitor] DEBUG n.processor.TaskPollingMonitor - Task completed > TaskHandler[id: 1; name: DeNovoAssembly (1); status: COMPLETED; exit: 125; error: -; workDir: /home/luisas/Desktop/cluster/data/work/07/d84a4682dfea6f3eb15e6f31a9d27a]
Oct-27 14:50:08.949 [Task submitter] DEBUG nextflow.executor.LocalTaskHandler - Launch cmd line: /bin/bash -ue .command.run
Oct-27 14:50:08.949 [Task submitter] INFO  nextflow.Session - [95/6f6077] Submitted process > DeNovoAssembly (3)
Oct-27 14:50:08.973 [Task monitor] ERROR nextflow.processor.TaskProcessor - Error executing process > 'DeNovoAssembly (1)'

Caused by:
  Process `DeNovoAssembly (1)` terminated with an error exit status (125)

Command executed:

  stringtie A0358_S67_L001_deduplicated.bam -G rheMac10_EBOV-Kikwit_UCSC.gtf -o A0358_S67_L001_deduplicated.stringtie.gtf --fr -p 1

Command exit status:
  125

Command output:
  (empty)

Command error:
  WARNING: Error loading config file: /home/luisas/.docker/config.json: open /home/luisas/.docker/config.json: permission denied
  docker: Error response from daemon: error while creating mount source path '/home/luisas/Desktop/cluster/data': mkdir /home/luisas/Desktop/cluster/data: file exists.
  time="2020-10-27T14:50:08+01:00" level=error msg="error waiting for container: context canceled"

Work dir:
  /home/luisas/Desktop/cluster/data/work/07/d84a4682dfea6f3eb15e6f31a9d27a

Tip: view the complete command output by changing to the process work dir and entering the command `cat .command.out`
Oct-27 14:50:08.981 [Task monitor] DEBUG nextflow.Session - Session aborted -- Cause: Process `DeNovoAssembly (1)` terminated with an error exit status (125)
Oct-27 14:50:09.000 [Task monitor] DEBUG nextflow.Session - The following nodes are still active:
[process] StringTie_Merge_Reference_Guided
  status=ACTIVE
  port 0: (value) OPEN  ; channel: stringtie_gtfs
  port 1: (value) bound ; channel: reference_gtf
  port 2: (cntrl) -     ; channel: $

[process] gffCompare2
  status=ACTIVE
  port 0: (value) OPEN  ; channel: merged_gtf
  port 1: (value) bound ; channel: reference_gtf
  port 2: (cntrl) -     ; channel: $

[process] prefilter
  status=ACTIVE
  port 0: (value) bound ; channel: prefilter_script
  port 1: (value) OPEN  ; channel: assembly
  port 2: (value) OPEN  ; channel: lnc_novel_compared_to_ref
  port 3: (value) bound ; channel: ref
  port 4: (cntrl) -     ; channel: $

[process] mergeWithAnnotation
  status=ACTIVE
  port 0: (value) bound ; channel: gtf_ref
  port 1: (value) OPEN  ; channel: novel
  port 2: (cntrl) -     ; channel: $

[process] expression_stringtie
  status=ACTIVE
  port 0: (value) OPEN  ; channel: gtf
  port 1: (queue) OPEN  ; channel: -
  port 2: (cntrl) -     ; channel: $

[process] filterExpression
  status=ACTIVE
  port 0: (value) bound ; channel: expression_script
  port 1: (value) OPEN  ; channel: prefilter_candidates
  port 2: (value) OPEN  ; channel: expression
  port 3: (cntrl) -     ; channel: $

[process] gtf2bed
  status=ACTIVE
  port 0: (value) bound ; channel: gtf2bed
  port 1: (value) OPEN  ; channel: candidates
  port 2: (cntrl) -     ; channel: $

[process] getFasta
  status=ACTIVE
  port 0: (value) bound ; channel: gtf2bed
  port 1: (queue) OPEN  ; channel: reference_assembly
  port 2: (value) OPEN  ; channel: candidates
  port 3: (cntrl) -     ; channel: $

[process] CPC2
  status=ACTIVE
  port 0: (queue) OPEN  ; channel: candidates
  port 1: (cntrl) -     ; channel: $

[process] CPAT
  status=ACTIVE
  port 0: (queue) OPEN  ; channel: candidates
  port 1: (value) bound ; channel: cpatmodel
  port 2: (value) bound ; channel: cpathexamer
  port 3: (value) bound ; channel: cpat_files
  port 4: (cntrl) -     ; channel: $

[process] CNIT
  status=ACTIVE
  port 0: (queue) OPEN  ; channel: candidates
  port 1: (cntrl) -     ; channel: $

[process] getFinalAnnotation
  status=ACTIVE
  port 0: (queue) OPEN  ; channel: cpatpred
  port 1: (queue) OPEN  ; channel: cnitpred
  port 2: (queue) OPEN  ; channel: cpc2pred
  port 3: (value) bound ; channel: gtf_ref_2
  port 4: (value) bound ; channel: extractNovel_script
  port 5: (value) OPEN  ; channel: candidates
  port 6: (cntrl) -     ; channel: $

[process] stringtie
  status=ACTIVE
  port 0: (value) OPEN  ; channel: -
  port 1: (queue) OPEN  ; channel: -
  port 2: (cntrl) -     ; channel: $

Oct-27 14:50:09.003 [main] DEBUG nextflow.Session - Session await > all process finished
Oct-27 14:50:09.003 [main] DEBUG nextflow.Session - Session await > all barriers passed
Oct-27 14:50:09.013 [main] WARN  n.processor.TaskPollingMonitor - Killing pending tasks (4)
Oct-27 14:50:09.141 [main] DEBUG nextflow.trace.StatsObserver - Workflow completed > WorkflowStats[succeedCount=0; failedCount=5; ignoredCount=0; cachedCount=0; succeedDuration=0ms; failedDuration=537ms; cachedDuration=0ms]
Oct-27 14:50:09.211 [main] DEBUG nextflow.CacheDB - Closing CacheDB done
Oct-27 14:50:09.247 [main] DEBUG nextflow.script.ScriptRunner - > Execution complete -- Goodbye
