Oct-27 14:37:52.344 [main] DEBUG nextflow.cli.Launcher - $> nextflow run ../03_rerun_assembly.nf --prefix_data /home/luisas/Desktop/cluster/data/ -w /home/luisas/Desktop/cluster/data/work/ -c ../configs/nextflow.filtering.local.config
Oct-27 14:37:52.459 [main] INFO  nextflow.cli.CmdRun - N E X T F L O W  ~  version 19.07.0
Oct-27 14:37:52.469 [main] INFO  nextflow.cli.CmdRun - Launching `../03_rerun_assembly.nf` [naughty_rosalind] - revision: c0a4f8a748
Oct-27 14:37:52.481 [main] DEBUG nextflow.config.ConfigBuilder - User config file: /home/luisas/Desktop/cluster/proj/code/ebola/BroadAnnotation/02_local/../configs/nextflow.filtering.local.config
Oct-27 14:37:52.486 [main] DEBUG nextflow.config.ConfigBuilder - Parsing config file: /home/luisas/Desktop/cluster/proj/code/ebola/BroadAnnotation/configs/nextflow.filtering.local.config
Oct-27 14:37:52.528 [main] DEBUG nextflow.config.ConfigBuilder - Applying config profile: `standard`
Oct-27 14:37:52.860 [main] DEBUG nextflow.Session - Session uuid: 0790c45a-ce90-49e9-8810-9284e69795ef
Oct-27 14:37:52.860 [main] DEBUG nextflow.Session - Run name: naughty_rosalind
Oct-27 14:37:52.861 [main] DEBUG nextflow.Session - Executor pool size: 4
Oct-27 14:37:52.870 [main] DEBUG nextflow.cli.CmdRun - 
  Version: 19.07.0 build 5106
  Created: 27-07-2019 13:22 UTC (15:22 CEST)
  System: Linux 5.4.0-51-generic
  Runtime: Groovy 2.5.6 on OpenJDK 64-Bit Server VM 1.8.0_265-8u265-b01-0ubuntu2~18.04-b01
  Encoding: UTF-8 (UTF-8)
  Process: 19288@luisas-Precision-3630-Tower [127.0.1.1]
  CPUs: 4 - Mem: 31.2 GB (4.1 GB) - Swap: 1.8 GB (1.7 GB)
Oct-27 14:37:52.897 [main] DEBUG nextflow.Session - Work-dir: /home/luisas/Desktop/cluster/data/work [fuseblk]
Oct-27 14:37:52.898 [main] DEBUG nextflow.Session - Script base path does not exist or is not a directory: /home/luisas/Desktop/cluster/proj/code/ebola/BroadAnnotation/bin
Oct-27 14:37:53.129 [main] DEBUG nextflow.Session - Session start invoked
Oct-27 14:37:53.476 [main] DEBUG nextflow.script.ScriptRunner - > Launching execution
Oct-27 14:37:53.484 [main] INFO  nextflow.Nextflow - ==============================================
Oct-27 14:37:53.485 [main] INFO  nextflow.Nextflow -  Quantification and Filtering  
Oct-27 14:37:53.485 [main] INFO  nextflow.Nextflow - ==============================================
Oct-27 14:37:53.516 [PathVisitor-1] DEBUG nextflow.file.PathVisitor - files for syntax: glob; folder: /home/luisas/Desktop/cluster/data/00_RawData/BroadTranscriptomesComplete/bams/; pattern: *.bam; options: [:]
Oct-27 14:37:53.599 [main] WARN  nextflow.script.ScriptBinding - Access to undefined parameter `mrnas_predicted` -- Initialise it to a default value eg. `params.mrnas_predicted = some_value`
Oct-27 14:37:53.614 [PathVisitor-1] DEBUG nextflow.file.PathVisitor - files for syntax: glob; folder: /home/luisas/Desktop/cluster/data/01_bulk_RNA-Seq_lncRNAs_annotation/01_PreliminaryFiles_rheMac10/; pattern: cpat*; options: [:]
Oct-27 14:37:53.659 [main] DEBUG nextflow.script.ProcessConfig - Config settings `withName:expression_stringtie|DeNovoAssembly|StringTie_Merge_Reference_Guided` matches process DeNovoAssembly
Oct-27 14:37:53.663 [main] DEBUG nextflow.executor.ExecutorFactory - << taskConfig executor: null
Oct-27 14:37:53.663 [main] DEBUG nextflow.executor.ExecutorFactory - >> processorType: 'local'
Oct-27 14:37:53.667 [main] DEBUG nextflow.executor.Executor - [warm up] executor > local
Oct-27 14:37:53.677 [main] DEBUG n.processor.LocalPollingMonitor - Creating local task monitor for executor 'local' > cpus=4; memory=31.2 GB; capacity=4; pollInterval=100ms; dumpInterval=5m
Oct-27 14:37:53.753 [main] DEBUG nextflow.processor.TaskProcessor - Creating operator > DeNovoAssembly -- maxForks: 4
Oct-27 14:37:53.803 [main] DEBUG nextflow.script.ProcessConfig - Config settings `withName:expression_stringtie|DeNovoAssembly|StringTie_Merge_Reference_Guided` matches process StringTie_Merge_Reference_Guided
Oct-27 14:37:53.804 [main] DEBUG nextflow.executor.ExecutorFactory - << taskConfig executor: null
Oct-27 14:37:53.806 [main] DEBUG nextflow.executor.ExecutorFactory - >> processorType: 'local'
Oct-27 14:37:53.808 [main] DEBUG nextflow.processor.TaskProcessor - Creating operator > StringTie_Merge_Reference_Guided -- maxForks: 4
Oct-27 14:37:53.816 [main] DEBUG nextflow.executor.ExecutorFactory - << taskConfig executor: null
Oct-27 14:37:53.817 [main] DEBUG nextflow.executor.ExecutorFactory - >> processorType: 'local'
Oct-27 14:37:53.823 [main] DEBUG nextflow.processor.TaskProcessor - Creating operator > gffCompare2 -- maxForks: 4
Oct-27 14:37:53.832 [main] DEBUG nextflow.executor.ExecutorFactory - << taskConfig executor: null
Oct-27 14:37:53.832 [main] DEBUG nextflow.executor.ExecutorFactory - >> processorType: 'local'
Oct-27 14:37:53.833 [main] DEBUG nextflow.processor.TaskProcessor - Creating operator > prefilter -- maxForks: 4
Oct-27 14:37:53.837 [main] DEBUG nextflow.executor.ExecutorFactory - << taskConfig executor: null
Oct-27 14:37:53.838 [main] DEBUG nextflow.executor.ExecutorFactory - >> processorType: 'local'
Oct-27 14:37:53.839 [main] DEBUG nextflow.processor.TaskProcessor - Creating operator > mergeWithAnnotation -- maxForks: 4
Oct-27 14:37:53.852 [main] DEBUG nextflow.script.ProcessConfig - Config settings `withName:expression_stringtie|DeNovoAssembly|StringTie_Merge_Reference_Guided` matches process expression_stringtie
Oct-27 14:37:53.852 [main] DEBUG nextflow.executor.ExecutorFactory - << taskConfig executor: null
Oct-27 14:37:53.852 [main] DEBUG nextflow.executor.ExecutorFactory - >> processorType: 'local'
Oct-27 14:37:53.856 [main] DEBUG nextflow.processor.TaskProcessor - Creating operator > expression_stringtie -- maxForks: 4
Oct-27 14:37:53.866 [main] DEBUG nextflow.executor.ExecutorFactory - << taskConfig executor: null
Oct-27 14:37:53.866 [main] DEBUG nextflow.executor.ExecutorFactory - >> processorType: 'local'
Oct-27 14:37:53.868 [main] DEBUG nextflow.processor.TaskProcessor - Creating operator > filterExpression -- maxForks: 4
Oct-27 14:37:53.874 [main] DEBUG nextflow.executor.ExecutorFactory - << taskConfig executor: null
Oct-27 14:37:53.874 [main] DEBUG nextflow.executor.ExecutorFactory - >> processorType: 'local'
Oct-27 14:37:53.874 [main] DEBUG nextflow.processor.TaskProcessor - Creating operator > gtf2bed -- maxForks: 4
Oct-27 14:37:53.877 [main] DEBUG nextflow.executor.ExecutorFactory - << taskConfig executor: null
Oct-27 14:37:53.877 [main] DEBUG nextflow.executor.ExecutorFactory - >> processorType: 'local'
Oct-27 14:37:53.878 [main] DEBUG nextflow.processor.TaskProcessor - Creating operator > getFasta -- maxForks: 4
Oct-27 14:37:53.882 [main] DEBUG nextflow.executor.ExecutorFactory - << taskConfig executor: null
Oct-27 14:37:53.882 [main] DEBUG nextflow.executor.ExecutorFactory - >> processorType: 'local'
Oct-27 14:37:53.885 [main] DEBUG nextflow.processor.TaskProcessor - Creating operator > CPC2 -- maxForks: 4
Oct-27 14:37:53.888 [main] DEBUG nextflow.executor.ExecutorFactory - << taskConfig executor: null
Oct-27 14:37:53.888 [main] DEBUG nextflow.executor.ExecutorFactory - >> processorType: 'local'
Oct-27 14:37:53.888 [main] DEBUG nextflow.processor.TaskProcessor - Creating operator > CPAT -- maxForks: 4
Oct-27 14:37:53.893 [main] DEBUG nextflow.executor.ExecutorFactory - << taskConfig executor: null
Oct-27 14:37:53.894 [main] DEBUG nextflow.executor.ExecutorFactory - >> processorType: 'local'
Oct-27 14:37:53.895 [main] DEBUG nextflow.processor.TaskProcessor - Creating operator > CNIT -- maxForks: 4
Oct-27 14:37:53.914 [main] DEBUG nextflow.executor.ExecutorFactory - << taskConfig executor: null
Oct-27 14:37:53.915 [main] DEBUG nextflow.executor.ExecutorFactory - >> processorType: 'local'
Oct-27 14:37:53.916 [main] DEBUG nextflow.processor.TaskProcessor - Creating operator > getFinalAnnotation -- maxForks: 4
Oct-27 14:37:53.936 [main] DEBUG nextflow.executor.ExecutorFactory - << taskConfig executor: null
Oct-27 14:37:53.936 [main] DEBUG nextflow.executor.ExecutorFactory - >> processorType: 'local'
Oct-27 14:37:53.937 [main] DEBUG nextflow.processor.TaskProcessor - Creating operator > stringtie -- maxForks: 4
Oct-27 14:37:53.939 [main] DEBUG nextflow.script.ScriptRunner - > Await termination 
Oct-27 14:37:53.939 [main] DEBUG nextflow.Session - Session await
Oct-27 14:37:53.983 [Task submitter] DEBUG nextflow.executor.LocalTaskHandler - Launch cmd line: /bin/bash -ue .command.run
Oct-27 14:37:53.994 [Task submitter] INFO  nextflow.Session - [10/c589df] Submitted process > DeNovoAssembly (2)
Oct-27 14:37:54.015 [Task submitter] DEBUG nextflow.executor.LocalTaskHandler - Launch cmd line: /bin/bash -ue .command.run
Oct-27 14:37:54.017 [Task submitter] INFO  nextflow.Session - [bf/f5af2c] Submitted process > DeNovoAssembly (1)
Oct-27 14:37:54.029 [Task submitter] DEBUG nextflow.executor.LocalTaskHandler - Launch cmd line: /bin/bash -ue .command.run
Oct-27 14:37:54.035 [Task submitter] INFO  nextflow.Session - [13/50f1ca] Submitted process > DeNovoAssembly (4)
Oct-27 14:37:54.046 [Task submitter] DEBUG nextflow.executor.LocalTaskHandler - Launch cmd line: /bin/bash -ue .command.run
Oct-27 14:37:54.051 [Task submitter] INFO  nextflow.Session - [29/3c207d] Submitted process > DeNovoAssembly (3)
Oct-27 14:37:54.389 [Task monitor] DEBUG n.processor.TaskPollingMonitor - Task completed > TaskHandler[id: 4; name: DeNovoAssembly (2); status: COMPLETED; exit: 126; error: -; workDir: /home/luisas/Desktop/cluster/data/work/10/c589dfe06e8466be55a4318dbe6bb9]
Oct-27 14:37:54.398 [Task submitter] DEBUG nextflow.executor.LocalTaskHandler - Launch cmd line: /bin/bash -ue .command.run
Oct-27 14:37:54.398 [Task submitter] INFO  nextflow.Session - [49/ca0704] Submitted process > DeNovoAssembly (8)
Oct-27 14:37:54.433 [Task monitor] ERROR nextflow.processor.TaskProcessor - Error executing process > 'DeNovoAssembly (2)'

Caused by:
  Process `DeNovoAssembly (2)` terminated with an error exit status (126)

Command executed:

  stringtie A0190_S149_L002_deduplicated.bam -G rheMac10_EBOV-Kikwit_UCSC.gtf -o A0190_S149_L002_deduplicated.stringtie.gtf --fr -p 1

Command exit status:
  126

Command output:
  (empty)

Command error:
  WARNING: Error loading config file: /home/luisas/.docker/config.json: open /home/luisas/.docker/config.json: permission denied
  docker: Got permission denied while trying to connect to the Docker daemon socket at unix:///var/run/docker.sock: Post http://%2Fvar%2Frun%2Fdocker.sock/v1.40/containers/create?name=nxf-FDWpOdCN5DYhwbLUolFYOrPg: dial unix /var/run/docker.sock: connect: permission denied.
  See 'docker run --help'.

Work dir:
  /home/luisas/Desktop/cluster/data/work/10/c589dfe06e8466be55a4318dbe6bb9

Tip: you can replicate the issue by changing to the process work dir and entering the command `bash .command.run`
Oct-27 14:37:54.457 [Task monitor] DEBUG nextflow.Session - Session aborted -- Cause: Process `DeNovoAssembly (2)` terminated with an error exit status (126)
Oct-27 14:37:54.490 [Task monitor] DEBUG nextflow.Session - The following nodes are still active:
[process] StringTie_Merge_Reference_Guided
  status=ACTIVE
  port 0: (value) OPEN  ; channel: stringtie_gtfs
  port 1: (value) bound ; channel: reference_gtf
  port 2: (cntrl) -     ; channel: $

[process] gffCompare2
  status=ACTIVE
  port 0: (value) OPEN  ; channel: merged_gtf
  port 1: (value) bound ; channel: reference_gtf
  port 2: (cntrl) -     ; channel: $

[process] prefilter
  status=ACTIVE
  port 0: (value) bound ; channel: prefilter_script
  port 1: (value) OPEN  ; channel: assembly
  port 2: (value) OPEN  ; channel: lnc_novel_compared_to_ref
  port 3: (value) bound ; channel: ref
  port 4: (cntrl) -     ; channel: $

[process] mergeWithAnnotation
  status=ACTIVE
  port 0: (value) bound ; channel: gtf_ref
  port 1: (value) OPEN  ; channel: novel
  port 2: (cntrl) -     ; channel: $

[process] expression_stringtie
  status=ACTIVE
  port 0: (value) OPEN  ; channel: gtf
  port 1: (queue) OPEN  ; channel: -
  port 2: (cntrl) -     ; channel: $

[process] filterExpression
  status=ACTIVE
  port 0: (value) bound ; channel: expression_script
  port 1: (value) OPEN  ; channel: prefilter_candidates
  port 2: (value) OPEN  ; channel: expression
  port 3: (cntrl) -     ; channel: $

[process] gtf2bed
  status=ACTIVE
  port 0: (value) bound ; channel: gtf2bed
  port 1: (value) OPEN  ; channel: candidates
  port 2: (cntrl) -     ; channel: $

[process] getFasta
  status=ACTIVE
  port 0: (value) bound ; channel: gtf2bed
  port 1: (queue) OPEN  ; channel: reference_assembly
  port 2: (value) OPEN  ; channel: candidates
  port 3: (cntrl) -     ; channel: $

[process] CPC2
  status=ACTIVE
  port 0: (queue) OPEN  ; channel: candidates
  port 1: (cntrl) -     ; channel: $

[process] CPAT
  status=ACTIVE
  port 0: (queue) OPEN  ; channel: candidates
  port 1: (value) bound ; channel: cpatmodel
  port 2: (value) bound ; channel: cpathexamer
  port 3: (value) bound ; channel: cpat_files
  port 4: (cntrl) -     ; channel: $

[process] CNIT
  status=ACTIVE
  port 0: (queue) OPEN  ; channel: candidates
  port 1: (cntrl) -     ; channel: $

[process] getFinalAnnotation
  status=ACTIVE
  port 0: (queue) OPEN  ; channel: cpatpred
  port 1: (queue) OPEN  ; channel: cnitpred
  port 2: (queue) OPEN  ; channel: cpc2pred
  port 3: (value) bound ; channel: gtf_ref_2
  port 4: (value) bound ; channel: extractNovel_script
  port 5: (value) OPEN  ; channel: candidates
  port 6: (cntrl) -     ; channel: $

[process] stringtie
  status=ACTIVE
  port 0: (value) OPEN  ; channel: -
  port 1: (queue) OPEN  ; channel: -
  port 2: (cntrl) -     ; channel: $

Oct-27 14:37:54.494 [main] DEBUG nextflow.Session - Session await > all process finished
Oct-27 14:37:54.494 [main] DEBUG nextflow.Session - Session await > all barriers passed
Oct-27 14:37:54.501 [Task monitor] DEBUG n.processor.TaskPollingMonitor - Task completed > TaskHandler[id: 1; name: DeNovoAssembly (1); status: COMPLETED; exit: 126; error: -; workDir: /home/luisas/Desktop/cluster/data/work/bf/f5af2cfc78384525e36297c17b4718]
Oct-27 14:37:54.503 [main] WARN  n.processor.TaskPollingMonitor - Killing pending tasks (3)
Oct-27 14:37:54.503 [Task monitor] DEBUG n.processor.TaskPollingMonitor - Task completed > TaskHandler[id: 3; name: DeNovoAssembly (4); status: COMPLETED; exit: 126; error: -; workDir: /home/luisas/Desktop/cluster/data/work/13/50f1caca59a080b04a98f91fc6f00f]
Oct-27 14:37:54.506 [Task monitor] DEBUG n.processor.TaskPollingMonitor - Task completed > TaskHandler[id: 2; name: DeNovoAssembly (3); status: COMPLETED; exit: 126; error: -; workDir: /home/luisas/Desktop/cluster/data/work/29/3c207d19ee9725efadb3ca34d9c157]
Oct-27 14:37:54.507 [main] DEBUG nextflow.executor.LocalTaskHandler - Unable to kill DeNovoAssembly (4) -- command: kill -TERM 19390; exit: 1 
 bash: line 0: kill: (19390) - No such process

Oct-27 14:37:54.523 [main] DEBUG nextflow.trace.StatsObserver - Workflow completed > WorkflowStats[succeedCount=0; failedCount=6; ignoredCount=0; cachedCount=0; succeedDuration=0ms; failedDuration=1.9s; cachedDuration=0ms]
Oct-27 14:37:54.681 [main] DEBUG nextflow.CacheDB - Closing CacheDB done
Oct-27 14:37:54.699 [main] DEBUG nextflow.script.ScriptRunner - > Execution complete -- Goodbye
