Oct-27 14:36:20.627 [main] DEBUG nextflow.cli.Launcher - $> nextflow run ../03_rerun_assembly.nf --prefix_data /home/luisas/Desktop/cluster/data/ -w /home/luisas/Desktop/cluster/data/work/ -c ../configs/nextflow.filtering.local.config
Oct-27 14:36:20.761 [main] INFO  nextflow.cli.CmdRun - N E X T F L O W  ~  version 19.07.0
Oct-27 14:36:20.772 [main] INFO  nextflow.cli.CmdRun - Launching `../03_rerun_assembly.nf` [ecstatic_laplace] - revision: c0a4f8a748
Oct-27 14:36:20.786 [main] DEBUG nextflow.config.ConfigBuilder - User config file: /home/luisas/Desktop/cluster/proj/code/ebola/BroadAnnotation/02_local/../configs/nextflow.filtering.local.config
Oct-27 14:36:20.787 [main] DEBUG nextflow.config.ConfigBuilder - Parsing config file: /home/luisas/Desktop/cluster/proj/code/ebola/BroadAnnotation/configs/nextflow.filtering.local.config
Oct-27 14:36:20.821 [main] DEBUG nextflow.config.ConfigBuilder - Applying config profile: `standard`
Oct-27 14:36:21.118 [main] DEBUG nextflow.Session - Session uuid: c2a12298-20fb-463c-93b0-da9c055ec6a5
Oct-27 14:36:21.118 [main] DEBUG nextflow.Session - Run name: ecstatic_laplace
Oct-27 14:36:21.119 [main] DEBUG nextflow.Session - Executor pool size: 4
Oct-27 14:36:21.127 [main] DEBUG nextflow.cli.CmdRun - 
  Version: 19.07.0 build 5106
  Created: 27-07-2019 13:22 UTC (15:22 CEST)
  System: Linux 5.4.0-51-generic
  Runtime: Groovy 2.5.6 on OpenJDK 64-Bit Server VM 1.8.0_265-8u265-b01-0ubuntu2~18.04-b01
  Encoding: UTF-8 (UTF-8)
  Process: 18853@luisas-Precision-3630-Tower [127.0.1.1]
  CPUs: 4 - Mem: 31.2 GB (4.1 GB) - Swap: 1.8 GB (1.7 GB)
Oct-27 14:36:21.156 [main] DEBUG nextflow.Session - Work-dir: /home/luisas/Desktop/cluster/data/work [fuseblk]
Oct-27 14:36:21.157 [main] DEBUG nextflow.Session - Script base path does not exist or is not a directory: /home/luisas/Desktop/cluster/proj/code/ebola/BroadAnnotation/bin
Oct-27 14:36:21.379 [main] DEBUG nextflow.Session - Session start invoked
Oct-27 14:36:21.700 [main] DEBUG nextflow.script.ScriptRunner - > Launching execution
Oct-27 14:36:21.708 [main] INFO  nextflow.Nextflow - ==============================================
Oct-27 14:36:21.708 [main] INFO  nextflow.Nextflow -  Quantification and Filtering  
Oct-27 14:36:21.708 [main] INFO  nextflow.Nextflow - ==============================================
Oct-27 14:36:21.738 [PathVisitor-1] DEBUG nextflow.file.PathVisitor - files for syntax: glob; folder: /home/luisas/Desktop/cluster/data/00_RawData/BroadTranscriptomesComplete/bams/; pattern: *.bam; options: [:]
Oct-27 14:36:21.823 [main] WARN  nextflow.script.ScriptBinding - Access to undefined parameter `mrnas_predicted` -- Initialise it to a default value eg. `params.mrnas_predicted = some_value`
Oct-27 14:36:21.830 [PathVisitor-1] DEBUG nextflow.file.PathVisitor - files for syntax: glob; folder: /home/luisas/Desktop/cluster/data/01_bulk_RNA-Seq_lncRNAs_annotation/01_PreliminaryFiles_rheMac10/; pattern: cpat*; options: [:]
Oct-27 14:36:21.888 [main] DEBUG nextflow.script.ProcessConfig - Config settings `withName:expression_stringtie|DeNovoAssembly|StringTie_Merge_Reference_Guided` matches process DeNovoAssembly
Oct-27 14:36:21.891 [main] DEBUG nextflow.executor.ExecutorFactory - << taskConfig executor: null
Oct-27 14:36:21.892 [main] DEBUG nextflow.executor.ExecutorFactory - >> processorType: 'local'
Oct-27 14:36:21.894 [main] DEBUG nextflow.executor.Executor - [warm up] executor > local
Oct-27 14:36:21.897 [main] DEBUG n.processor.LocalPollingMonitor - Creating local task monitor for executor 'local' > cpus=4; memory=31.2 GB; capacity=4; pollInterval=100ms; dumpInterval=5m
Oct-27 14:36:21.948 [main] DEBUG nextflow.processor.TaskProcessor - Creating operator > DeNovoAssembly -- maxForks: 4
Oct-27 14:36:21.986 [main] DEBUG nextflow.script.ProcessConfig - Config settings `withName:expression_stringtie|DeNovoAssembly|StringTie_Merge_Reference_Guided` matches process StringTie_Merge_Reference_Guided
Oct-27 14:36:21.987 [main] DEBUG nextflow.executor.ExecutorFactory - << taskConfig executor: null
Oct-27 14:36:21.990 [main] DEBUG nextflow.executor.ExecutorFactory - >> processorType: 'local'
Oct-27 14:36:21.991 [main] DEBUG nextflow.processor.TaskProcessor - Creating operator > StringTie_Merge_Reference_Guided -- maxForks: 4
Oct-27 14:36:22.052 [main] DEBUG nextflow.executor.ExecutorFactory - << taskConfig executor: null
Oct-27 14:36:22.052 [main] DEBUG nextflow.executor.ExecutorFactory - >> processorType: 'local'
Oct-27 14:36:22.053 [main] DEBUG nextflow.processor.TaskProcessor - Creating operator > gffCompare2 -- maxForks: 4
Oct-27 14:36:22.057 [main] DEBUG nextflow.executor.ExecutorFactory - << taskConfig executor: null
Oct-27 14:36:22.057 [main] DEBUG nextflow.executor.ExecutorFactory - >> processorType: 'local'
Oct-27 14:36:22.058 [main] DEBUG nextflow.processor.TaskProcessor - Creating operator > prefilter -- maxForks: 4
Oct-27 14:36:22.061 [main] DEBUG nextflow.executor.ExecutorFactory - << taskConfig executor: null
Oct-27 14:36:22.062 [main] DEBUG nextflow.executor.ExecutorFactory - >> processorType: 'local'
Oct-27 14:36:22.065 [main] DEBUG nextflow.processor.TaskProcessor - Creating operator > mergeWithAnnotation -- maxForks: 4
Oct-27 14:36:22.075 [main] DEBUG nextflow.script.ProcessConfig - Config settings `withName:expression_stringtie|DeNovoAssembly|StringTie_Merge_Reference_Guided` matches process expression_stringtie
Oct-27 14:36:22.075 [main] DEBUG nextflow.executor.ExecutorFactory - << taskConfig executor: null
Oct-27 14:36:22.076 [main] DEBUG nextflow.executor.ExecutorFactory - >> processorType: 'local'
Oct-27 14:36:22.079 [main] DEBUG nextflow.processor.TaskProcessor - Creating operator > expression_stringtie -- maxForks: 4
Oct-27 14:36:22.087 [main] DEBUG nextflow.executor.ExecutorFactory - << taskConfig executor: null
Oct-27 14:36:22.087 [main] DEBUG nextflow.executor.ExecutorFactory - >> processorType: 'local'
Oct-27 14:36:22.089 [main] DEBUG nextflow.processor.TaskProcessor - Creating operator > filterExpression -- maxForks: 4
Oct-27 14:36:22.104 [main] DEBUG nextflow.executor.ExecutorFactory - << taskConfig executor: null
Oct-27 14:36:22.104 [main] DEBUG nextflow.executor.ExecutorFactory - >> processorType: 'local'
Oct-27 14:36:22.111 [main] DEBUG nextflow.processor.TaskProcessor - Creating operator > gtf2bed -- maxForks: 4
Oct-27 14:36:22.116 [main] DEBUG nextflow.executor.ExecutorFactory - << taskConfig executor: null
Oct-27 14:36:22.116 [main] DEBUG nextflow.executor.ExecutorFactory - >> processorType: 'local'
Oct-27 14:36:22.118 [main] DEBUG nextflow.processor.TaskProcessor - Creating operator > getFasta -- maxForks: 4
Oct-27 14:36:22.125 [main] DEBUG nextflow.executor.ExecutorFactory - << taskConfig executor: null
Oct-27 14:36:22.125 [main] DEBUG nextflow.executor.ExecutorFactory - >> processorType: 'local'
Oct-27 14:36:22.126 [main] DEBUG nextflow.processor.TaskProcessor - Creating operator > CPC2 -- maxForks: 4
Oct-27 14:36:22.131 [main] DEBUG nextflow.executor.ExecutorFactory - << taskConfig executor: null
Oct-27 14:36:22.131 [main] DEBUG nextflow.executor.ExecutorFactory - >> processorType: 'local'
Oct-27 14:36:22.132 [main] DEBUG nextflow.processor.TaskProcessor - Creating operator > CPAT -- maxForks: 4
Oct-27 14:36:22.136 [main] DEBUG nextflow.executor.ExecutorFactory - << taskConfig executor: null
Oct-27 14:36:22.137 [main] DEBUG nextflow.executor.ExecutorFactory - >> processorType: 'local'
Oct-27 14:36:22.139 [main] DEBUG nextflow.processor.TaskProcessor - Creating operator > CNIT -- maxForks: 4
Oct-27 14:36:22.141 [Task submitter] DEBUG nextflow.executor.LocalTaskHandler - Launch cmd line: /bin/bash -ue .command.run
Oct-27 14:36:22.154 [main] DEBUG nextflow.executor.ExecutorFactory - << taskConfig executor: null
Oct-27 14:36:22.154 [main] DEBUG nextflow.executor.ExecutorFactory - >> processorType: 'local'
Oct-27 14:36:22.155 [main] DEBUG nextflow.processor.TaskProcessor - Creating operator > getFinalAnnotation -- maxForks: 4
Oct-27 14:36:22.155 [Task submitter] INFO  nextflow.Session - [79/330294] Submitted process > DeNovoAssembly (2)
Oct-27 14:36:22.173 [main] DEBUG nextflow.executor.ExecutorFactory - << taskConfig executor: null
Oct-27 14:36:22.175 [main] DEBUG nextflow.executor.ExecutorFactory - >> processorType: 'local'
Oct-27 14:36:22.178 [main] DEBUG nextflow.processor.TaskProcessor - Creating operator > stringtie -- maxForks: 4
Oct-27 14:36:22.178 [Task submitter] DEBUG nextflow.executor.LocalTaskHandler - Launch cmd line: /bin/bash -ue .command.run
Oct-27 14:36:22.184 [main] DEBUG nextflow.script.ScriptRunner - > Await termination 
Oct-27 14:36:22.184 [main] DEBUG nextflow.Session - Session await
Oct-27 14:36:22.185 [Task submitter] INFO  nextflow.Session - [07/39a79c] Submitted process > DeNovoAssembly (3)
Oct-27 14:36:22.197 [Task submitter] DEBUG nextflow.executor.LocalTaskHandler - Launch cmd line: /bin/bash -ue .command.run
Oct-27 14:36:22.198 [Task submitter] INFO  nextflow.Session - [0d/d119b7] Submitted process > DeNovoAssembly (1)
Oct-27 14:36:22.211 [Task submitter] DEBUG nextflow.executor.LocalTaskHandler - Launch cmd line: /bin/bash -ue .command.run
Oct-27 14:36:22.213 [Task submitter] INFO  nextflow.Session - [c6/059551] Submitted process > DeNovoAssembly (4)
Oct-27 14:36:22.525 [Task monitor] DEBUG n.processor.TaskPollingMonitor - Task completed > TaskHandler[id: 4; name: DeNovoAssembly (2); status: COMPLETED; exit: 126; error: -; workDir: /home/luisas/Desktop/cluster/data/work/79/330294a3a0e61356184df09aa10345]
Oct-27 14:36:22.551 [Task submitter] DEBUG nextflow.executor.LocalTaskHandler - Launch cmd line: /bin/bash -ue .command.run
Oct-27 14:36:22.551 [Task submitter] INFO  nextflow.Session - [aa/1bab8a] Submitted process > DeNovoAssembly (6)
Oct-27 14:36:22.597 [Task monitor] ERROR nextflow.processor.TaskProcessor - Error executing process > 'DeNovoAssembly (2)'

Caused by:
  Process `DeNovoAssembly (2)` terminated with an error exit status (126)

Command executed:

  stringtie A0372_S53_L001_deduplicated.bam -G rheMac10_EBOV-Kikwit_UCSC.gtf -o A0372_S53_L001_deduplicated.stringtie.gtf --fr -p 1

Command exit status:
  126

Command output:
  (empty)

Command error:
  WARNING: Error loading config file: /home/luisas/.docker/config.json: open /home/luisas/.docker/config.json: permission denied
  docker: Got permission denied while trying to connect to the Docker daemon socket at unix:///var/run/docker.sock: Post http://%2Fvar%2Frun%2Fdocker.sock/v1.40/containers/create?name=nxf-HY04FfMuDC7Hy3A40KJJGt73: dial unix /var/run/docker.sock: connect: permission denied.
  See 'docker run --help'.

Work dir:
  /home/luisas/Desktop/cluster/data/work/79/330294a3a0e61356184df09aa10345

Tip: view the complete command output by changing to the process work dir and entering the command `cat .command.out`
Oct-27 14:36:22.606 [Task monitor] DEBUG nextflow.Session - Session aborted -- Cause: Process `DeNovoAssembly (2)` terminated with an error exit status (126)
Oct-27 14:36:22.642 [Task monitor] DEBUG nextflow.Session - The following nodes are still active:
[process] StringTie_Merge_Reference_Guided
  status=ACTIVE
  port 0: (value) OPEN  ; channel: stringtie_gtfs
  port 1: (value) bound ; channel: reference_gtf
  port 2: (cntrl) -     ; channel: $

[process] gffCompare2
  status=ACTIVE
  port 0: (value) OPEN  ; channel: merged_gtf
  port 1: (value) bound ; channel: reference_gtf
  port 2: (cntrl) -     ; channel: $

[process] prefilter
  status=ACTIVE
  port 0: (value) bound ; channel: prefilter_script
  port 1: (value) OPEN  ; channel: assembly
  port 2: (value) OPEN  ; channel: lnc_novel_compared_to_ref
  port 3: (value) bound ; channel: ref
  port 4: (cntrl) -     ; channel: $

[process] mergeWithAnnotation
  status=ACTIVE
  port 0: (value) bound ; channel: gtf_ref
  port 1: (value) OPEN  ; channel: novel
  port 2: (cntrl) -     ; channel: $

[process] expression_stringtie
  status=ACTIVE
  port 0: (value) OPEN  ; channel: gtf
  port 1: (queue) OPEN  ; channel: -
  port 2: (cntrl) -     ; channel: $

[process] filterExpression
  status=ACTIVE
  port 0: (value) bound ; channel: expression_script
  port 1: (value) OPEN  ; channel: prefilter_candidates
  port 2: (value) OPEN  ; channel: expression
  port 3: (cntrl) -     ; channel: $

[process] gtf2bed
  status=ACTIVE
  port 0: (value) bound ; channel: gtf2bed
  port 1: (value) OPEN  ; channel: candidates
  port 2: (cntrl) -     ; channel: $

[process] getFasta
  status=ACTIVE
  port 0: (value) bound ; channel: gtf2bed
  port 1: (queue) OPEN  ; channel: reference_assembly
  port 2: (value) OPEN  ; channel: candidates
  port 3: (cntrl) -     ; channel: $

[process] CPC2
  status=ACTIVE
  port 0: (queue) OPEN  ; channel: candidates
  port 1: (cntrl) -     ; channel: $

[process] CPAT
  status=ACTIVE
  port 0: (queue) OPEN  ; channel: candidates
  port 1: (value) bound ; channel: cpatmodel
  port 2: (value) bound ; channel: cpathexamer
  port 3: (value) bound ; channel: cpat_files
  port 4: (cntrl) -     ; channel: $

[process] CNIT
  status=ACTIVE
  port 0: (queue) OPEN  ; channel: candidates
  port 1: (cntrl) -     ; channel: $

[process] getFinalAnnotation
  status=ACTIVE
  port 0: (queue) OPEN  ; channel: cpatpred
  port 1: (queue) OPEN  ; channel: cnitpred
  port 2: (queue) OPEN  ; channel: cpc2pred
  port 3: (value) bound ; channel: gtf_ref_2
  port 4: (value) bound ; channel: extractNovel_script
  port 5: (value) OPEN  ; channel: candidates
  port 6: (cntrl) -     ; channel: $

[process] stringtie
  status=ACTIVE
  port 0: (value) OPEN  ; channel: -
  port 1: (queue) OPEN  ; channel: -
  port 2: (cntrl) -     ; channel: $

Oct-27 14:36:22.653 [main] DEBUG nextflow.Session - Session await > all process finished
Oct-27 14:36:22.653 [main] DEBUG nextflow.Session - Session await > all barriers passed
Oct-27 14:36:22.663 [main] WARN  n.processor.TaskPollingMonitor - Killing pending tasks (4)
Oct-27 14:36:22.682 [Task monitor] DEBUG n.processor.TaskPollingMonitor - Task completed > TaskHandler[id: 2; name: DeNovoAssembly (3); status: COMPLETED; exit: 126; error: -; workDir: /home/luisas/Desktop/cluster/data/work/07/39a79ca6f17c7382cbf84c57737cc3]
Oct-27 14:36:22.682 [main] DEBUG nextflow.executor.LocalTaskHandler - Unable to kill DeNovoAssembly (3) -- command: kill -TERM 18956; exit: 1 
 bash: line 0: kill: (18956) - No such process

Oct-27 14:36:22.685 [Task monitor] DEBUG n.processor.TaskPollingMonitor - Task completed > TaskHandler[id: 1; name: DeNovoAssembly (1); status: COMPLETED; exit: 126; error: -; workDir: /home/luisas/Desktop/cluster/data/work/0d/d119b74dca4a274c03b4ec7b946b20]
Oct-27 14:36:22.687 [Task monitor] DEBUG n.processor.TaskPollingMonitor - Task completed > TaskHandler[id: 3; name: DeNovoAssembly (4); status: COMPLETED; exit: 126; error: -; workDir: /home/luisas/Desktop/cluster/data/work/c6/05955152ef21e6c0f7a6e76a46f1d1]
Oct-27 14:36:22.696 [main] DEBUG nextflow.executor.LocalTaskHandler - Unable to kill DeNovoAssembly (1) -- command: kill -TERM 18961; exit: 1 
 bash: line 0: kill: (18961) - No such process

Oct-27 14:36:22.711 [main] DEBUG nextflow.trace.StatsObserver - Workflow completed > WorkflowStats[succeedCount=0; failedCount=7; ignoredCount=0; cachedCount=0; succeedDuration=0ms; failedDuration=2.2s; cachedDuration=0ms]
Oct-27 14:36:22.815 [main] DEBUG nextflow.CacheDB - Closing CacheDB done
Oct-27 14:36:22.834 [main] DEBUG nextflow.script.ScriptRunner - > Execution complete -- Goodbye
