Oct-27 14:34:03.581 [main] DEBUG nextflow.cli.Launcher - $> nextflow run ../03_rerun_assembly.nf --prefix_data /home/luisas/Desktop/cluster/data/ -w /home/luisas/Desktop/cluster/data/work/ -c ../configs/nextflow.filtering.local.config
Oct-27 14:34:03.701 [main] INFO  nextflow.cli.CmdRun - N E X T F L O W  ~  version 19.07.0
Oct-27 14:34:03.713 [main] INFO  nextflow.cli.CmdRun - Launching `../03_rerun_assembly.nf` [mighty_torricelli] - revision: c0a4f8a748
Oct-27 14:34:03.731 [main] DEBUG nextflow.config.ConfigBuilder - User config file: /home/luisas/Desktop/cluster/proj/code/ebola/BroadAnnotation/02_local/../configs/nextflow.filtering.local.config
Oct-27 14:34:03.732 [main] DEBUG nextflow.config.ConfigBuilder - Parsing config file: /home/luisas/Desktop/cluster/proj/code/ebola/BroadAnnotation/configs/nextflow.filtering.local.config
Oct-27 14:34:03.764 [main] DEBUG nextflow.config.ConfigBuilder - Applying config profile: `standard`
Oct-27 14:34:04.079 [main] DEBUG nextflow.Session - Session uuid: 02538632-b6ba-40d6-9de0-e3ba5b21c648
Oct-27 14:34:04.079 [main] DEBUG nextflow.Session - Run name: mighty_torricelli
Oct-27 14:34:04.080 [main] DEBUG nextflow.Session - Executor pool size: 4
Oct-27 14:34:04.088 [main] DEBUG nextflow.cli.CmdRun - 
  Version: 19.07.0 build 5106
  Created: 27-07-2019 13:22 UTC (15:22 CEST)
  System: Linux 5.4.0-51-generic
  Runtime: Groovy 2.5.6 on OpenJDK 64-Bit Server VM 1.8.0_265-8u265-b01-0ubuntu2~18.04-b01
  Encoding: UTF-8 (UTF-8)
  Process: 18450@luisas-Precision-3630-Tower [127.0.1.1]
  CPUs: 4 - Mem: 31.2 GB (4.2 GB) - Swap: 1.8 GB (1.7 GB)
Oct-27 14:34:04.116 [main] DEBUG nextflow.Session - Work-dir: /home/luisas/Desktop/cluster/data/work [fuseblk]
Oct-27 14:34:04.116 [main] DEBUG nextflow.Session - Script base path does not exist or is not a directory: /home/luisas/Desktop/cluster/proj/code/ebola/BroadAnnotation/bin
Oct-27 14:34:04.305 [main] DEBUG nextflow.Session - Session start invoked
Oct-27 14:34:04.620 [main] DEBUG nextflow.script.ScriptRunner - > Launching execution
Oct-27 14:34:04.630 [main] INFO  nextflow.Nextflow - ==============================================
Oct-27 14:34:04.631 [main] INFO  nextflow.Nextflow -  Quantification and Filtering  
Oct-27 14:34:04.631 [main] INFO  nextflow.Nextflow - ==============================================
Oct-27 14:34:04.653 [PathVisitor-1] DEBUG nextflow.file.PathVisitor - files for syntax: glob; folder: /home/luisas/Desktop/cluster/data/00_RawData/BroadTranscriptomesComplete/bams/; pattern: *.bam; options: [:]
Oct-27 14:34:04.754 [main] WARN  nextflow.script.ScriptBinding - Access to undefined parameter `mrnas_predicted` -- Initialise it to a default value eg. `params.mrnas_predicted = some_value`
Oct-27 14:34:04.768 [PathVisitor-3] DEBUG nextflow.file.PathVisitor - files for syntax: glob; folder: /home/luisas/Desktop/cluster/data/01_bulk_RNA-Seq_lncRNAs_annotation/01_PreliminaryFiles_rheMac10/; pattern: cpat*; options: [:]
Oct-27 14:34:04.810 [main] DEBUG nextflow.script.ProcessConfig - Config settings `withName:expression_stringtie|DeNovoAssembly|StringTie_Merge_Reference_Guided` matches process DeNovoAssembly
Oct-27 14:34:04.813 [main] DEBUG nextflow.executor.ExecutorFactory - << taskConfig executor: null
Oct-27 14:34:04.814 [main] DEBUG nextflow.executor.ExecutorFactory - >> processorType: 'local'
Oct-27 14:34:04.817 [main] DEBUG nextflow.executor.Executor - [warm up] executor > local
Oct-27 14:34:04.821 [main] DEBUG n.processor.LocalPollingMonitor - Creating local task monitor for executor 'local' > cpus=4; memory=31.2 GB; capacity=4; pollInterval=100ms; dumpInterval=5m
Oct-27 14:34:04.853 [main] DEBUG nextflow.processor.TaskProcessor - Creating operator > DeNovoAssembly -- maxForks: 4
Oct-27 14:34:04.871 [main] DEBUG nextflow.script.ProcessConfig - Config settings `withName:expression_stringtie|DeNovoAssembly|StringTie_Merge_Reference_Guided` matches process StringTie_Merge_Reference_Guided
Oct-27 14:34:04.872 [main] DEBUG nextflow.executor.ExecutorFactory - << taskConfig executor: null
Oct-27 14:34:04.872 [main] DEBUG nextflow.executor.ExecutorFactory - >> processorType: 'local'
Oct-27 14:34:04.873 [main] DEBUG nextflow.processor.TaskProcessor - Creating operator > StringTie_Merge_Reference_Guided -- maxForks: 4
Oct-27 14:34:04.877 [main] DEBUG nextflow.executor.ExecutorFactory - << taskConfig executor: null
Oct-27 14:34:04.877 [main] DEBUG nextflow.executor.ExecutorFactory - >> processorType: 'local'
Oct-27 14:34:04.885 [main] DEBUG nextflow.processor.TaskProcessor - Creating operator > gffCompare2 -- maxForks: 4
Oct-27 14:34:04.907 [main] DEBUG nextflow.executor.ExecutorFactory - << taskConfig executor: null
Oct-27 14:34:04.907 [main] DEBUG nextflow.executor.ExecutorFactory - >> processorType: 'local'
Oct-27 14:34:04.908 [main] DEBUG nextflow.processor.TaskProcessor - Creating operator > prefilter -- maxForks: 4
Oct-27 14:34:04.912 [main] DEBUG nextflow.executor.ExecutorFactory - << taskConfig executor: null
Oct-27 14:34:04.912 [main] DEBUG nextflow.executor.ExecutorFactory - >> processorType: 'local'
Oct-27 14:34:04.917 [main] DEBUG nextflow.processor.TaskProcessor - Creating operator > mergeWithAnnotation -- maxForks: 4
Oct-27 14:34:04.971 [main] DEBUG nextflow.script.ProcessConfig - Config settings `withName:expression_stringtie|DeNovoAssembly|StringTie_Merge_Reference_Guided` matches process expression_stringtie
Oct-27 14:34:04.971 [main] DEBUG nextflow.executor.ExecutorFactory - << taskConfig executor: null
Oct-27 14:34:04.971 [main] DEBUG nextflow.executor.ExecutorFactory - >> processorType: 'local'
Oct-27 14:34:04.972 [main] DEBUG nextflow.processor.TaskProcessor - Creating operator > expression_stringtie -- maxForks: 4
Oct-27 14:34:04.980 [main] DEBUG nextflow.executor.ExecutorFactory - << taskConfig executor: null
Oct-27 14:34:04.980 [main] DEBUG nextflow.executor.ExecutorFactory - >> processorType: 'local'
Oct-27 14:34:04.982 [main] DEBUG nextflow.processor.TaskProcessor - Creating operator > filterExpression -- maxForks: 4
Oct-27 14:34:05.003 [main] DEBUG nextflow.executor.ExecutorFactory - << taskConfig executor: null
Oct-27 14:34:05.004 [main] DEBUG nextflow.executor.ExecutorFactory - >> processorType: 'local'
Oct-27 14:34:05.005 [main] DEBUG nextflow.processor.TaskProcessor - Creating operator > gtf2bed -- maxForks: 4
Oct-27 14:34:05.007 [main] DEBUG nextflow.executor.ExecutorFactory - << taskConfig executor: null
Oct-27 14:34:05.007 [main] DEBUG nextflow.executor.ExecutorFactory - >> processorType: 'local'
Oct-27 14:34:05.008 [main] DEBUG nextflow.processor.TaskProcessor - Creating operator > getFasta -- maxForks: 4
Oct-27 14:34:05.026 [main] DEBUG nextflow.executor.ExecutorFactory - << taskConfig executor: null
Oct-27 14:34:05.026 [main] DEBUG nextflow.executor.ExecutorFactory - >> processorType: 'local'
Oct-27 14:34:05.026 [main] DEBUG nextflow.processor.TaskProcessor - Creating operator > CPC2 -- maxForks: 4
Oct-27 14:34:05.035 [main] DEBUG nextflow.executor.ExecutorFactory - << taskConfig executor: null
Oct-27 14:34:05.035 [main] DEBUG nextflow.executor.ExecutorFactory - >> processorType: 'local'
Oct-27 14:34:05.036 [main] DEBUG nextflow.processor.TaskProcessor - Creating operator > CPAT -- maxForks: 4
Oct-27 14:34:05.045 [Task submitter] DEBUG nextflow.executor.LocalTaskHandler - Launch cmd line: /bin/bash -ue .command.run
Oct-27 14:34:05.046 [main] DEBUG nextflow.executor.ExecutorFactory - << taskConfig executor: null
Oct-27 14:34:05.046 [main] DEBUG nextflow.executor.ExecutorFactory - >> processorType: 'local'
Oct-27 14:34:05.047 [main] DEBUG nextflow.processor.TaskProcessor - Creating operator > CNIT -- maxForks: 4
Oct-27 14:34:05.062 [Task submitter] INFO  nextflow.Session - [58/bca146] Submitted process > DeNovoAssembly (4)
Oct-27 14:34:05.073 [main] DEBUG nextflow.executor.ExecutorFactory - << taskConfig executor: null
Oct-27 14:34:05.074 [main] DEBUG nextflow.executor.ExecutorFactory - >> processorType: 'local'
Oct-27 14:34:05.075 [main] DEBUG nextflow.processor.TaskProcessor - Creating operator > getFinalAnnotation -- maxForks: 4
Oct-27 14:34:05.083 [main] DEBUG nextflow.executor.ExecutorFactory - << taskConfig executor: null
Oct-27 14:34:05.083 [main] DEBUG nextflow.executor.ExecutorFactory - >> processorType: 'local'
Oct-27 14:34:05.084 [main] DEBUG nextflow.processor.TaskProcessor - Creating operator > stringtie -- maxForks: 4
Oct-27 14:34:05.085 [Task submitter] DEBUG nextflow.executor.LocalTaskHandler - Launch cmd line: /bin/bash -ue .command.run
Oct-27 14:34:05.087 [main] DEBUG nextflow.script.ScriptRunner - > Await termination 
Oct-27 14:34:05.087 [main] DEBUG nextflow.Session - Session await
Oct-27 14:34:05.087 [Task submitter] INFO  nextflow.Session - [14/fb3430] Submitted process > DeNovoAssembly (1)
Oct-27 14:34:05.102 [Task submitter] DEBUG nextflow.executor.LocalTaskHandler - Launch cmd line: /bin/bash -ue .command.run
Oct-27 14:34:05.108 [Task submitter] INFO  nextflow.Session - [84/0f19be] Submitted process > DeNovoAssembly (2)
Oct-27 14:34:05.121 [Task submitter] DEBUG nextflow.executor.LocalTaskHandler - Launch cmd line: /bin/bash -ue .command.run
Oct-27 14:34:05.121 [Task submitter] INFO  nextflow.Session - [f5/15fffb] Submitted process > DeNovoAssembly (3)
Oct-27 14:34:05.368 [Task monitor] DEBUG n.processor.TaskPollingMonitor - Task completed > TaskHandler[id: 1; name: DeNovoAssembly (2); status: COMPLETED; exit: 255; error: -; workDir: /home/luisas/Desktop/cluster/data/work/84/0f19be8badc57dc9f48ce5d9c42627]
Oct-27 14:34:05.380 [Task submitter] DEBUG nextflow.executor.LocalTaskHandler - Launch cmd line: /bin/bash -ue .command.run
Oct-27 14:34:05.380 [Task submitter] INFO  nextflow.Session - [2c/029ba5] Submitted process > DeNovoAssembly (6)
Oct-27 14:34:05.428 [Task monitor] ERROR nextflow.processor.TaskProcessor - Error executing process > 'DeNovoAssembly (2)'

Caused by:
  Process `DeNovoAssembly (2)` terminated with an error exit status (255)

Command executed:

  stringtie A0190_S149_L002_deduplicated.bam -G rheMac10_EBOV-Kikwit_UCSC.gtf -o A0190_S149_L002_deduplicated.stringtie.gtf --fr -p 1

Command exit status:
  255

Command output:
  (empty)

Command error:
  [91mERROR  : Failed to mount squashfs image in (read only): Invalid argument
  [0m[31mABORT  : Retval = 255
  [0m

Work dir:
  /home/luisas/Desktop/cluster/data/work/84/0f19be8badc57dc9f48ce5d9c42627

Tip: view the complete command output by changing to the process work dir and entering the command `cat .command.out`
Oct-27 14:34:05.462 [Task monitor] DEBUG nextflow.Session - Session aborted -- Cause: Process `DeNovoAssembly (2)` terminated with an error exit status (255)
Oct-27 14:34:05.488 [Task monitor] DEBUG nextflow.Session - The following nodes are still active:
[process] DeNovoAssembly
  status=ACTIVE
  port 0: (queue) OPEN  ; channel: -
  port 1: (value) bound ; channel: gtf
  port 2: (cntrl) -     ; channel: $

[process] StringTie_Merge_Reference_Guided
  status=ACTIVE
  port 0: (value) OPEN  ; channel: stringtie_gtfs
  port 1: (value) bound ; channel: reference_gtf
  port 2: (cntrl) -     ; channel: $

[process] gffCompare2
  status=ACTIVE
  port 0: (value) OPEN  ; channel: merged_gtf
  port 1: (value) bound ; channel: reference_gtf
  port 2: (cntrl) -     ; channel: $

[process] prefilter
  status=ACTIVE
  port 0: (value) bound ; channel: prefilter_script
  port 1: (value) OPEN  ; channel: assembly
  port 2: (value) OPEN  ; channel: lnc_novel_compared_to_ref
  port 3: (value) bound ; channel: ref
  port 4: (cntrl) -     ; channel: $

[process] mergeWithAnnotation
  status=ACTIVE
  port 0: (value) bound ; channel: gtf_ref
  port 1: (value) OPEN  ; channel: novel
  port 2: (cntrl) -     ; channel: $

[process] expression_stringtie
  status=ACTIVE
  port 0: (value) OPEN  ; channel: gtf
  port 1: (queue) OPEN  ; channel: -
  port 2: (cntrl) -     ; channel: $

[process] filterExpression
  status=ACTIVE
  port 0: (value) bound ; channel: expression_script
  port 1: (value) OPEN  ; channel: prefilter_candidates
  port 2: (value) OPEN  ; channel: expression
  port 3: (cntrl) -     ; channel: $

[process] gtf2bed
  status=ACTIVE
  port 0: (value) bound ; channel: gtf2bed
  port 1: (value) OPEN  ; channel: candidates
  port 2: (cntrl) -     ; channel: $

[process] getFasta
  status=ACTIVE
  port 0: (value) bound ; channel: gtf2bed
  port 1: (queue) OPEN  ; channel: reference_assembly
  port 2: (value) OPEN  ; channel: candidates
  port 3: (cntrl) -     ; channel: $

[process] CPC2
  status=ACTIVE
  port 0: (queue) OPEN  ; channel: candidates
  port 1: (cntrl) -     ; channel: $

[process] CPAT
  status=ACTIVE
  port 0: (queue) OPEN  ; channel: candidates
  port 1: (value) bound ; channel: cpatmodel
  port 2: (value) bound ; channel: cpathexamer
  port 3: (value) bound ; channel: cpat_files
  port 4: (cntrl) -     ; channel: $

[process] CNIT
  status=ACTIVE
  port 0: (queue) OPEN  ; channel: candidates
  port 1: (cntrl) -     ; channel: $

[process] getFinalAnnotation
  status=ACTIVE
  port 0: (queue) OPEN  ; channel: cpatpred
  port 1: (queue) OPEN  ; channel: cnitpred
  port 2: (queue) OPEN  ; channel: cpc2pred
  port 3: (value) bound ; channel: gtf_ref_2
  port 4: (value) bound ; channel: extractNovel_script
  port 5: (value) OPEN  ; channel: candidates
  port 6: (cntrl) -     ; channel: $

[process] stringtie
  status=ACTIVE
  port 0: (value) OPEN  ; channel: -
  port 1: (queue) OPEN  ; channel: -
  port 2: (cntrl) -     ; channel: $

Oct-27 14:34:05.497 [main] DEBUG nextflow.Session - Session await > all process finished
Oct-27 14:34:05.497 [main] DEBUG nextflow.Session - Session await > all barriers passed
Oct-27 14:34:05.516 [main] WARN  n.processor.TaskPollingMonitor - Killing pending tasks (4)
Oct-27 14:34:05.516 [Task monitor] DEBUG n.processor.TaskPollingMonitor - Task completed > TaskHandler[id: 3; name: DeNovoAssembly (3); status: COMPLETED; exit: 255; error: -; workDir: /home/luisas/Desktop/cluster/data/work/f5/15fffb85e4db63f7619884cbd5a0ef]
Oct-27 14:34:05.531 [main] DEBUG nextflow.executor.LocalTaskHandler - Unable to kill DeNovoAssembly (4) -- command: kill -TERM 18543; exit: 1 
 bash: line 0: kill: (18543) - No such process

Oct-27 14:34:05.538 [main] DEBUG nextflow.executor.LocalTaskHandler - Unable to kill DeNovoAssembly (1) -- command: kill -TERM 18549; exit: 1 
 bash: line 0: kill: (18549) - No such process

Oct-27 14:34:05.542 [main] DEBUG nextflow.trace.StatsObserver - Workflow completed > WorkflowStats[succeedCount=0; failedCount=5; ignoredCount=0; cachedCount=0; succeedDuration=0ms; failedDuration=421ms; cachedDuration=0ms]
Oct-27 14:34:05.644 [main] DEBUG nextflow.CacheDB - Closing CacheDB done
Oct-27 14:34:05.665 [main] DEBUG nextflow.script.ScriptRunner - > Execution complete -- Goodbye
