Oct-27 14:38:54.837 [main] DEBUG nextflow.cli.Launcher - $> nextflow run ../03_rerun_assembly.nf --prefix_data /home/luisas/Desktop/cluster/data/ -w /home/luisas/Desktop/cluster/data/work/ -c ../configs/nextflow.filtering.local.config
Oct-27 14:38:55.072 [main] INFO  nextflow.cli.CmdRun - N E X T F L O W  ~  version 19.07.0
Oct-27 14:38:55.088 [main] INFO  nextflow.cli.CmdRun - Launching `../03_rerun_assembly.nf` [golden_poitras] - revision: c0a4f8a748
Oct-27 14:38:55.116 [main] DEBUG nextflow.config.ConfigBuilder - User config file: /home/luisas/Desktop/cluster/proj/code/ebola/BroadAnnotation/02_local/../configs/nextflow.filtering.local.config
Oct-27 14:38:55.117 [main] DEBUG nextflow.config.ConfigBuilder - Parsing config file: /home/luisas/Desktop/cluster/proj/code/ebola/BroadAnnotation/configs/nextflow.filtering.local.config
Oct-27 14:38:55.162 [main] DEBUG nextflow.config.ConfigBuilder - Applying config profile: `standard`
Oct-27 14:38:55.458 [main] DEBUG nextflow.Session - Session uuid: bf787e20-cd63-430b-8145-abf9b86344ce
Oct-27 14:38:55.458 [main] DEBUG nextflow.Session - Run name: golden_poitras
Oct-27 14:38:55.458 [main] DEBUG nextflow.Session - Executor pool size: 4
Oct-27 14:38:55.466 [main] DEBUG nextflow.cli.CmdRun - 
  Version: 19.07.0 build 5106
  Created: 27-07-2019 13:22 UTC (15:22 CEST)
  System: Linux 5.4.0-51-generic
  Runtime: Groovy 2.5.6 on OpenJDK 64-Bit Server VM 1.8.0_265-8u265-b01-0ubuntu2~18.04-b01
  Encoding: UTF-8 (UTF-8)
  Process: 19624@luisas-Precision-3630-Tower [127.0.1.1]
  CPUs: 4 - Mem: 31.2 GB (4.1 GB) - Swap: 1.8 GB (1.7 GB)
Oct-27 14:38:55.493 [main] DEBUG nextflow.Session - Work-dir: /home/luisas/Desktop/cluster/data/work [fuseblk]
Oct-27 14:38:55.494 [main] DEBUG nextflow.Session - Script base path does not exist or is not a directory: /home/luisas/Desktop/cluster/proj/code/ebola/BroadAnnotation/bin
Oct-27 14:38:55.710 [main] DEBUG nextflow.Session - Session start invoked
Oct-27 14:38:56.034 [main] DEBUG nextflow.script.ScriptRunner - > Launching execution
Oct-27 14:38:56.043 [main] INFO  nextflow.Nextflow - ==============================================
Oct-27 14:38:56.043 [main] INFO  nextflow.Nextflow -  Quantification and Filtering  
Oct-27 14:38:56.043 [main] INFO  nextflow.Nextflow - ==============================================
Oct-27 14:38:56.076 [PathVisitor-1] DEBUG nextflow.file.PathVisitor - files for syntax: glob; folder: /home/luisas/Desktop/cluster/data/00_RawData/BroadTranscriptomesComplete/bams/; pattern: *.bam; options: [:]
Oct-27 14:38:56.183 [main] WARN  nextflow.script.ScriptBinding - Access to undefined parameter `mrnas_predicted` -- Initialise it to a default value eg. `params.mrnas_predicted = some_value`
Oct-27 14:38:56.191 [PathVisitor-3] DEBUG nextflow.file.PathVisitor - files for syntax: glob; folder: /home/luisas/Desktop/cluster/data/01_bulk_RNA-Seq_lncRNAs_annotation/01_PreliminaryFiles_rheMac10/; pattern: cpat*; options: [:]
Oct-27 14:38:56.253 [main] DEBUG nextflow.script.ProcessConfig - Config settings `withName:expression_stringtie|DeNovoAssembly|StringTie_Merge_Reference_Guided` matches process DeNovoAssembly
Oct-27 14:38:56.262 [main] DEBUG nextflow.executor.ExecutorFactory - << taskConfig executor: null
Oct-27 14:38:56.262 [main] DEBUG nextflow.executor.ExecutorFactory - >> processorType: 'local'
Oct-27 14:38:56.267 [main] DEBUG nextflow.executor.Executor - [warm up] executor > local
Oct-27 14:38:56.273 [main] DEBUG n.processor.LocalPollingMonitor - Creating local task monitor for executor 'local' > cpus=4; memory=31.2 GB; capacity=4; pollInterval=100ms; dumpInterval=5m
Oct-27 14:38:56.308 [main] DEBUG nextflow.processor.TaskProcessor - Creating operator > DeNovoAssembly -- maxForks: 4
Oct-27 14:38:56.353 [main] DEBUG nextflow.script.ProcessConfig - Config settings `withName:expression_stringtie|DeNovoAssembly|StringTie_Merge_Reference_Guided` matches process StringTie_Merge_Reference_Guided
Oct-27 14:38:56.353 [main] DEBUG nextflow.executor.ExecutorFactory - << taskConfig executor: null
Oct-27 14:38:56.353 [main] DEBUG nextflow.executor.ExecutorFactory - >> processorType: 'local'
Oct-27 14:38:56.358 [main] DEBUG nextflow.processor.TaskProcessor - Creating operator > StringTie_Merge_Reference_Guided -- maxForks: 4
Oct-27 14:38:56.373 [main] DEBUG nextflow.executor.ExecutorFactory - << taskConfig executor: null
Oct-27 14:38:56.373 [main] DEBUG nextflow.executor.ExecutorFactory - >> processorType: 'local'
Oct-27 14:38:56.374 [main] DEBUG nextflow.processor.TaskProcessor - Creating operator > gffCompare2 -- maxForks: 4
Oct-27 14:38:56.398 [main] DEBUG nextflow.executor.ExecutorFactory - << taskConfig executor: null
Oct-27 14:38:56.400 [main] DEBUG nextflow.executor.ExecutorFactory - >> processorType: 'local'
Oct-27 14:38:56.401 [main] DEBUG nextflow.processor.TaskProcessor - Creating operator > prefilter -- maxForks: 4
Oct-27 14:38:56.406 [main] DEBUG nextflow.executor.ExecutorFactory - << taskConfig executor: null
Oct-27 14:38:56.406 [main] DEBUG nextflow.executor.ExecutorFactory - >> processorType: 'local'
Oct-27 14:38:56.407 [main] DEBUG nextflow.processor.TaskProcessor - Creating operator > mergeWithAnnotation -- maxForks: 4
Oct-27 14:38:56.411 [main] DEBUG nextflow.script.ProcessConfig - Config settings `withName:expression_stringtie|DeNovoAssembly|StringTie_Merge_Reference_Guided` matches process expression_stringtie
Oct-27 14:38:56.411 [main] DEBUG nextflow.executor.ExecutorFactory - << taskConfig executor: null
Oct-27 14:38:56.411 [main] DEBUG nextflow.executor.ExecutorFactory - >> processorType: 'local'
Oct-27 14:38:56.415 [main] DEBUG nextflow.processor.TaskProcessor - Creating operator > expression_stringtie -- maxForks: 4
Oct-27 14:38:56.428 [main] DEBUG nextflow.executor.ExecutorFactory - << taskConfig executor: null
Oct-27 14:38:56.428 [main] DEBUG nextflow.executor.ExecutorFactory - >> processorType: 'local'
Oct-27 14:38:56.431 [main] DEBUG nextflow.processor.TaskProcessor - Creating operator > filterExpression -- maxForks: 4
Oct-27 14:38:56.436 [main] DEBUG nextflow.executor.ExecutorFactory - << taskConfig executor: null
Oct-27 14:38:56.436 [main] DEBUG nextflow.executor.ExecutorFactory - >> processorType: 'local'
Oct-27 14:38:56.437 [main] DEBUG nextflow.processor.TaskProcessor - Creating operator > gtf2bed -- maxForks: 4
Oct-27 14:38:56.443 [main] DEBUG nextflow.executor.ExecutorFactory - << taskConfig executor: null
Oct-27 14:38:56.443 [main] DEBUG nextflow.executor.ExecutorFactory - >> processorType: 'local'
Oct-27 14:38:56.444 [main] DEBUG nextflow.processor.TaskProcessor - Creating operator > getFasta -- maxForks: 4
Oct-27 14:38:56.451 [main] DEBUG nextflow.executor.ExecutorFactory - << taskConfig executor: null
Oct-27 14:38:56.451 [main] DEBUG nextflow.executor.ExecutorFactory - >> processorType: 'local'
Oct-27 14:38:56.452 [main] DEBUG nextflow.processor.TaskProcessor - Creating operator > CPC2 -- maxForks: 4
Oct-27 14:38:56.462 [main] DEBUG nextflow.executor.ExecutorFactory - << taskConfig executor: null
Oct-27 14:38:56.462 [main] DEBUG nextflow.executor.ExecutorFactory - >> processorType: 'local'
Oct-27 14:38:56.463 [main] DEBUG nextflow.processor.TaskProcessor - Creating operator > CPAT -- maxForks: 4
Oct-27 14:38:56.467 [main] DEBUG nextflow.executor.ExecutorFactory - << taskConfig executor: null
Oct-27 14:38:56.467 [main] DEBUG nextflow.executor.ExecutorFactory - >> processorType: 'local'
Oct-27 14:38:56.468 [main] DEBUG nextflow.processor.TaskProcessor - Creating operator > CNIT -- maxForks: 4
Oct-27 14:38:56.477 [main] DEBUG nextflow.executor.ExecutorFactory - << taskConfig executor: null
Oct-27 14:38:56.477 [main] DEBUG nextflow.executor.ExecutorFactory - >> processorType: 'local'
Oct-27 14:38:56.478 [main] DEBUG nextflow.processor.TaskProcessor - Creating operator > getFinalAnnotation -- maxForks: 4
Oct-27 14:38:56.488 [main] DEBUG nextflow.executor.ExecutorFactory - << taskConfig executor: null
Oct-27 14:38:56.488 [main] DEBUG nextflow.executor.ExecutorFactory - >> processorType: 'local'
Oct-27 14:38:56.489 [main] DEBUG nextflow.processor.TaskProcessor - Creating operator > stringtie -- maxForks: 4
Oct-27 14:38:56.493 [main] DEBUG nextflow.script.ScriptRunner - > Await termination 
Oct-27 14:38:56.495 [main] DEBUG nextflow.Session - Session await
Oct-27 14:38:56.534 [Task submitter] DEBUG nextflow.executor.LocalTaskHandler - Launch cmd line: /bin/bash -ue .command.run
Oct-27 14:38:56.555 [Task submitter] INFO  nextflow.Session - [ae/24fa9e] Submitted process > DeNovoAssembly (4)
Oct-27 14:38:56.592 [Task submitter] DEBUG nextflow.executor.LocalTaskHandler - Launch cmd line: /bin/bash -ue .command.run
Oct-27 14:38:56.595 [Task submitter] INFO  nextflow.Session - [62/11bad0] Submitted process > DeNovoAssembly (3)
Oct-27 14:38:56.607 [Task submitter] DEBUG nextflow.executor.LocalTaskHandler - Launch cmd line: /bin/bash -ue .command.run
Oct-27 14:38:56.614 [Task submitter] INFO  nextflow.Session - [08/664c08] Submitted process > DeNovoAssembly (2)
Oct-27 14:38:56.625 [Task submitter] DEBUG nextflow.executor.LocalTaskHandler - Launch cmd line: /bin/bash -ue .command.run
Oct-27 14:38:56.629 [Task submitter] INFO  nextflow.Session - [75/66a47c] Submitted process > DeNovoAssembly (1)
Oct-27 14:38:56.942 [Task monitor] DEBUG n.processor.TaskPollingMonitor - Task completed > TaskHandler[id: 3; name: DeNovoAssembly (3); status: COMPLETED; exit: 126; error: -; workDir: /home/luisas/Desktop/cluster/data/work/62/11bad084b1a436fd15ced95221dffe]
Oct-27 14:38:56.951 [Task submitter] DEBUG nextflow.executor.LocalTaskHandler - Launch cmd line: /bin/bash -ue .command.run
Oct-27 14:38:56.951 [Task submitter] INFO  nextflow.Session - [53/0e9ab3] Submitted process > DeNovoAssembly (6)
Oct-27 14:38:56.986 [Task monitor] ERROR nextflow.processor.TaskProcessor - Error executing process > 'DeNovoAssembly (3)'

Caused by:
  Process `DeNovoAssembly (3)` terminated with an error exit status (126)

Command executed:

  stringtie A0085_S115_L002_deduplicated.bam -G rheMac10_EBOV-Kikwit_UCSC.gtf -o A0085_S115_L002_deduplicated.stringtie.gtf --fr -p 1

Command exit status:
  126

Command output:
  (empty)

Command error:
  WARNING: Error loading config file: /home/luisas/.docker/config.json: open /home/luisas/.docker/config.json: permission denied
  docker: Got permission denied while trying to connect to the Docker daemon socket at unix:///var/run/docker.sock: Post http://%2Fvar%2Frun%2Fdocker.sock/v1.40/containers/create?name=nxf-GmRIK78eSVONUmhgadvhPHVv: dial unix /var/run/docker.sock: connect: permission denied.
  See 'docker run --help'.

Work dir:
  /home/luisas/Desktop/cluster/data/work/62/11bad084b1a436fd15ced95221dffe

Tip: you can try to figure out what's wrong by changing to the process work dir and showing the script file named `.command.sh`
Oct-27 14:38:57.011 [Task monitor] DEBUG nextflow.Session - Session aborted -- Cause: Process `DeNovoAssembly (3)` terminated with an error exit status (126)
Oct-27 14:38:57.059 [Task monitor] DEBUG nextflow.Session - The following nodes are still active:
[process] StringTie_Merge_Reference_Guided
  status=ACTIVE
  port 0: (value) OPEN  ; channel: stringtie_gtfs
  port 1: (value) bound ; channel: reference_gtf
  port 2: (cntrl) -     ; channel: $

[process] gffCompare2
  status=ACTIVE
  port 0: (value) OPEN  ; channel: merged_gtf
  port 1: (value) bound ; channel: reference_gtf
  port 2: (cntrl) -     ; channel: $

[process] prefilter
  status=ACTIVE
  port 0: (value) bound ; channel: prefilter_script
  port 1: (value) OPEN  ; channel: assembly
  port 2: (value) OPEN  ; channel: lnc_novel_compared_to_ref
  port 3: (value) bound ; channel: ref
  port 4: (cntrl) -     ; channel: $

[process] mergeWithAnnotation
  status=ACTIVE
  port 0: (value) bound ; channel: gtf_ref
  port 1: (value) OPEN  ; channel: novel
  port 2: (cntrl) -     ; channel: $

[process] expression_stringtie
  status=ACTIVE
  port 0: (value) OPEN  ; channel: gtf
  port 1: (queue) OPEN  ; channel: -
  port 2: (cntrl) -     ; channel: $

[process] filterExpression
  status=ACTIVE
  port 0: (value) bound ; channel: expression_script
  port 1: (value) OPEN  ; channel: prefilter_candidates
  port 2: (value) OPEN  ; channel: expression
  port 3: (cntrl) -     ; channel: $

[process] gtf2bed
  status=ACTIVE
  port 0: (value) bound ; channel: gtf2bed
  port 1: (value) OPEN  ; channel: candidates
  port 2: (cntrl) -     ; channel: $

[process] getFasta
  status=ACTIVE
  port 0: (value) bound ; channel: gtf2bed
  port 1: (queue) OPEN  ; channel: reference_assembly
  port 2: (value) OPEN  ; channel: candidates
  port 3: (cntrl) -     ; channel: $

[process] CPC2
  status=ACTIVE
  port 0: (queue) OPEN  ; channel: candidates
  port 1: (cntrl) -     ; channel: $

[process] CPAT
  status=ACTIVE
  port 0: (queue) OPEN  ; channel: candidates
  port 1: (value) bound ; channel: cpatmodel
  port 2: (value) bound ; channel: cpathexamer
  port 3: (value) bound ; channel: cpat_files
  port 4: (cntrl) -     ; channel: $

[process] CNIT
  status=ACTIVE
  port 0: (queue) OPEN  ; channel: candidates
  port 1: (cntrl) -     ; channel: $

[process] getFinalAnnotation
  status=ACTIVE
  port 0: (queue) OPEN  ; channel: cpatpred
  port 1: (queue) OPEN  ; channel: cnitpred
  port 2: (queue) OPEN  ; channel: cpc2pred
  port 3: (value) bound ; channel: gtf_ref_2
  port 4: (value) bound ; channel: extractNovel_script
  port 5: (value) OPEN  ; channel: candidates
  port 6: (cntrl) -     ; channel: $

[process] stringtie
  status=ACTIVE
  port 0: (value) OPEN  ; channel: -
  port 1: (queue) OPEN  ; channel: -
  port 2: (cntrl) -     ; channel: $

Oct-27 14:38:57.070 [main] DEBUG nextflow.Session - Session await > all process finished
Oct-27 14:38:57.070 [main] DEBUG nextflow.Session - Session await > all barriers passed
Oct-27 14:38:57.088 [Task monitor] DEBUG n.processor.TaskPollingMonitor - Task completed > TaskHandler[id: 2; name: DeNovoAssembly (2); status: COMPLETED; exit: 126; error: -; workDir: /home/luisas/Desktop/cluster/data/work/08/664c08778ca2ba0b85a20f03928692]
Oct-27 14:38:57.090 [main] WARN  n.processor.TaskPollingMonitor - Killing pending tasks (3)
Oct-27 14:38:57.090 [Task monitor] DEBUG n.processor.TaskPollingMonitor - Task completed > TaskHandler[id: 1; name: DeNovoAssembly (1); status: COMPLETED; exit: 126; error: -; workDir: /home/luisas/Desktop/cluster/data/work/75/66a47c9bc7eccc682d44c7ee230149]
Oct-27 14:38:57.104 [main] DEBUG nextflow.executor.LocalTaskHandler - Unable to kill DeNovoAssembly (4) -- command: kill -TERM 19718; exit: 1 
 bash: line 0: kill: (19718) - No such process

Oct-27 14:38:57.109 [main] DEBUG nextflow.trace.StatsObserver - Workflow completed > WorkflowStats[succeedCount=0; failedCount=5; ignoredCount=0; cachedCount=0; succeedDuration=0ms; failedDuration=1.1s; cachedDuration=0ms]
Oct-27 14:38:57.216 [main] DEBUG nextflow.CacheDB - Closing CacheDB done
Oct-27 14:38:57.246 [main] DEBUG nextflow.script.ScriptRunner - > Execution complete -- Goodbye
